[gd_scene load_steps=3 format=2]

[ext_resource path="res://scripts/AreaTrigger.gd" type="Script" id=1]

[sub_resource type="BoxShape" id=1]
extents = Vector3( 0.2, 0.2, 0.2 )

[node name="AreaTrigger" type="Area"]
transform = Transform( 5, 0, 0, 0, 5, 0, 0, 0, 5, 0, 0, 0 )
script = ExtResource( 1 )

[node name="CollisionShape" type="CollisionShape" parent="."]
shape = SubResource( 1 )

[connection signal="body_entered" from="." to="." method="_on_AreaTrigger_body_entered"]
