[gd_scene load_steps=3 format=2]

[ext_resource path="res://scripts/ShadowShape.gd" type="Script" id=1]

[sub_resource type="SpatialMaterial" id=4]
flags_transparent = true
flags_unshaded = true
albedo_color = Color( 0, 0, 0, 0.415686 )

[node name="ShadowShape" type="CSGCylinder"]
transform = Transform( 1, 0, 0, 0, 1, 0, 0, 0, 1, 0, 0.135396, 0 )
visible = false
layers = 2
cast_shadow = 0
radius = 0.236099
height = 0.0231553
material = SubResource( 4 )
script = ExtResource( 1 )
