[gd_scene load_steps=6 format=2]

[ext_resource path="res://assets/3D/levels/04_vanheim.dae" type="PackedScene" id=1]
[ext_resource path="res://scenes/actors/PlayerAsterius.tscn" type="PackedScene" id=3]
[ext_resource path="res://lightmaps/02_mountain.lmbake" type="BakedLightmapData" id=4]

[sub_resource type="GDScript" id=2]
script/source = "extends Spatial

func _enter_tree():
	Sounds.play_music(\"vanheim.ogg\")
	Cutscenes.title_card(\"Realm of Vanheim\")"

[sub_resource type="Environment" id=1]
ambient_light_color = Color( 0.203922, 0.203922, 0.203922, 1 )

[node name="Level" type="Spatial"]
script = SubResource( 2 )

[node name="WorldEnvironment" type="WorldEnvironment" parent="."]
environment = SubResource( 1 )

[node name="DirectionalLight" type="DirectionalLight" parent="WorldEnvironment"]
transform = Transform( -0.962725, 0.18866, -0.193823, 0.0232513, 0.771658, 0.635612, 0.26948, 0.607413, -0.747282, -108.907, 21.3915, 58.2029 )
light_color = Color( 0.85098, 0.85098, 0.85098, 1 )
light_bake_mode = 2
light_cull_mask = 4294967293
shadow_enabled = true
shadow_color = Color( 0.443137, 0.443137, 0.443137, 1 )
directional_shadow_mode = 0
directional_shadow_depth_range = 1

[node name="Asterius" parent="." instance=ExtResource( 3 )]
transform = Transform( 0.960274, 0, 0.279058, 0, 1, 0, -0.279058, 0, 0.960274, -9.4768, 35.7249, 93.4274 )

[node name="BakedLightmap" type="BakedLightmap" parent="."]
transform = Transform( 1, 0, 0, 0, 1, 0, 0, 0, 1, -7.34022, 26.5116, 85.2582 )
extents = Vector3( 54.5405, 47.6323, 61.1496 )
quality = 0
use_hdr = false
use_color = false
default_texels_per_unit = 0.0
environment_mode = 1
environment_min_light = Color( 0.0666667, 0.0666667, 0.0666667, 1 )
capture_enabled = false
light_data = ExtResource( 4 )

[node name="04_vanheim" parent="." instance=ExtResource( 1 )]
transform = Transform( 1, 0, 0, 0, 1, 0, 0, 0, 1, -200.41, -54.6178, 95.6268 )
