[gd_scene load_steps=2 format=2]

[ext_resource path="res://scenes/actors/Actor3D.tscn" type="PackedScene" id=1]

[node name="NPC_TestDummy" instance=ExtResource( 1 )]

[node name="ActorSprite" parent="." index="1"]
transform = Transform( 1, 0, 0, 0, 1, 0, 0, 0, 1, 0, -0.0317213, 0 )

[node name="CanvasLayer" parent="." index="3"]
visible = false

[node name="CSGSphere" parent="." index="5"]
transform = Transform( 1, 0, 0, 0, 1, 0, 0, 0, 1, 0, 0.089154, 0 )
radius = 0.280495
height = 0.100723
