[gd_scene load_steps=6 format=2]

[ext_resource path="res://scenes/actors/Actor3D.tscn" type="PackedScene" id=1]
[ext_resource path="res://assets/sprites/odin.png" type="Texture" id=2]

[sub_resource type="CapsuleShape" id=3]
radius = 0.384023
height = 0.580168

[sub_resource type="SpriteFrames" id=2]
animations = [ {
"frames": [ ExtResource( 2 ) ],
"loop": true,
"name": "idle_1",
"speed": 5.0
} ]

[sub_resource type="CapsuleShape" id=1]
resource_local_to_scene = true
radius = 0.25
height = 9.5

[node name="NPC_Odin" instance=ExtResource( 1 )]
critical_NPC = true

[node name="CollisionShape" parent="." index="0"]
transform = Transform( 1, 0, 0, 0, -4.37114e-08, -1, 0, 1, -4.37114e-08, 0, 0.676656, 0 )
shape = SubResource( 3 )

[node name="ActorSprite" parent="." index="1"]
transform = Transform( 1, 0, 0, 0, 1, 0, 0, 0, 1, 0, -0.0317213, 0 )
offset = Vector2( -7, 80 )
flip_h = false
frames = SubResource( 2 )
animation = "idle_1"
frame = 0

[node name="Label3D" parent="." index="4"]
visible = false

[node name="ShadowShape" parent="." index="5"]
transform = Transform( 1, 0, 0, 0, 1, 0, 0, 0, 1, 0, -0.0321241, 0 )
radius = 0.299473

[node name="CollisionShape" parent="CameraCollider/Area" index="0"]
shape = SubResource( 1 )
