<?xml version="1.0" encoding="utf-8"?>
<COLLADA xmlns="http://www.collada.org/2005/11/COLLADASchema" version="1.4.1" xmlns:xsi="http://www.w3.org/2001/XMLSchema-instance">
  <asset>
    <contributor>
      <author>Blender User</author>
      <authoring_tool>Blender 2.83.5 commit date:2020-08-19, commit time:06:07, hash:c2b144df395f</authoring_tool>
    </contributor>
    <created>2023-06-07T05:24:48</created>
    <modified>2023-06-07T05:24:48</modified>
    <unit name="meter" meter="1"/>
    <up_axis>Z_UP</up_axis>
  </asset>
  <library_effects/>
  <library_images/>
  <library_geometries>
    <geometry id="Cube_003-mesh" name="Cube.003">
      <mesh>
        <source id="Cube_003-mesh-positions">
          <float_array id="Cube_003-mesh-positions-array" count="1353">104.8858 47.574 48.1147 95.81571 53.99818 48.1147 111.31 56.64412 48.1147 102.2399 63.0683 48.1147 116.6547 66.32183 47.85205 107.5846 72.74601 47.85205 84.36509 63.52533 48.15702 90.78927 72.59545 48.15702 98.48429 79.88294 47.74731 98.39257 41.47382 50.43837 86.79748 45.50347 49.22367 76.46064 53.51623 49.11894 72.882 74.73381 48.14193 77.76846 82.97881 47.98788 87.52061 88.38335 48.23173 69.13394 63.47608 49.14568 119.8049 77.68218 49.16328 112.4362 84.17787 49.16328 106.0673 89.17275 49.08998 99.25611 93.135 49.10869 114.3248 88.3203 49.73077 109.1293 91.49103 49.87972 120.5608 78.29308 54.56423 112.4264 85.15189 54.30471 107.385 89.52584 53.80938 100.0933 94.53473 54.61668 122.186 79.92036 60.07434 112.6819 86.30554 59.99881 109.6462 90.33727 60.14814 104.1552 94.60005 61.13784 116.8978 91.49925 50.10259 111.5079 95.57498 50.01382 110.7184 91.79685 54.56484 112.571 95.4652 54.77658 113.1701 91.46961 60.16689 114.4974 92.75308 60.88457 114.1106 89.1823 54.83882 116.5983 92.2334 55.46901 120.9033 93.98314 50.0216 107.1264 44.89751 55.82521 87.69607 90.14215 54.21165 114.5624 55.70201 56.64378 77.05082 84.71292 53.03703 120.1017 63.91472 55.2344 62.32 65.52677 49.991 71.41357 75.77712 53.67785 68.89723 64.43068 50.8471 71.41423 78.92741 48.02259 74.08433 82.51839 48.01202 64.40361 84.70333 48.00226 67.50277 87.94921 47.99426 96.89753 43.26978 44.12238 70.21267 80.07234 53.56547 63.20205 85.84825 53.54515 72.32876 84.03968 53.26024 65.74719 89.47048 53.24248 86.44464 46.95803 44.6582 77.16325 54.09232 44.51107 70.55905 62.95773 43.98011 97.10578 41.72344 35.10836 84.28326 44.29929 34.54049 73.86338 52.50411 34.31932 67.36663 64.11435 34.67873 62.08327 66.48136 51.69243 63.74512 65.00842 44.82544 60.55271 66.16503 35.52405 56.43142 71.23033 53.32801 58.82464 73.89048 57.7822 56.88633 69.35487 47.57698 53.69392 70.51148 38.27559 57.85241 91.94361 51.56705 61.73807 94.18911 51.55905 56.1211 89.22698 61.367 61.12131 96.33807 57.23635 54.90458 100.6581 54.84371 59.38906 100.831 54.8357 53.46102 97.06576 64.64366 72.29502 105.412 72.28543 57.65636 109.8972 58.94571 62.07871 109.1361 59.01038 56.07525 106.3025 68.74393 63.44463 105.7012 64.97768 55.79604 114.7251 63.99028 60.04037 116.1832 63.98228 51.68732 112.2007 70.37644 62.03876 112.2466 72.88884 52.76075 116.4985 65.442 58.08576 120.6545 64.78075 31.4113 147.2984 72.90303 27.40561 145.7394 73.00556 110.8105 37.68163 55.01339 109.1871 45.00763 61.92954 115.9887 55.04585 62.83818 122.5932 66.03883 61.68587 110.0803 39.49139 61.80458 105.6362 37.3266 47.9246 104.3526 38.10163 43.73715 103.6292 34.07575 36.32566 128.1885 76.59741 60.07434 115.1895 41.68468 61.92954 121.9911 51.7229 62.83818 128.5956 62.71587 61.68587 117.8142 33.3805 61.52093 122.5215 36.33529 62.31295 129.3746 46.33695 62.83819 136.2746 57.01747 61.64352 123.0498 32.06807 56.35415 120.0175 31.17141 49.85039 120.5808 31.3557 45.14339 122.2538 28.56662 37.6078 113.8383 99.67552 50.17082 114.9013 99.56574 54.93358 117.091 99.22896 62.18478 120.3903 94.43386 55.2451 109.8946 90.35738 62.96984 122.3247 81.73183 66.089 119.9762 95.33077 61.39148 112.9303 86.32566 62.82051 104.06 94.75339 63.89226 113.4185 91.48972 62.98858 114.518 92.50988 63.4493 116.1252 98.87273 65.32427 120.4295 94.90663 64.27383 135.9945 76.84066 60.04267 130.2239 79.10437 66.52119 136.4016 62.95912 61.6542 128.2656 91.4781 66.74909 137.1588 78.89228 66.81533 109.4467 100.0154 62.16473 133.6163 88.95496 67.94321 143.103 88.93279 68.64821 109.0046 99.48699 65.73468 113.3008 102.6939 53.9032 98.48066 96.01103 57.90671 103.9445 101.9713 59.11453 114.9002 103.7273 59.85826 110.8608 106.02 60.01856 113.029 102.9496 49.99933 109.5281 106.1392 53.94788 109.2563 106.3949 50.04401 107.2055 113.7691 56.40565 107.2125 113.0636 61.40546 38.90373 134.1332 69.46611 35.61713 131.0855 69.69001 82.80732 89.86045 57.36724 89.29846 94.08765 58.34915 130.0113 92.51827 50.27771 127.4384 105.8267 50.23414 121.9927 120.2351 50.4971 108.3867 115.2531 50.64022 130.0093 91.38253 55.24511 129.5951 92.27944 61.39149 133.928 91.05632 61.58691 143.2224 92.31763 61.99734 134.4098 91.28089 49.72296 133.627 91.55234 55.44913 112.7488 127.5248 57.90476 141.1459 96.88209 49.49357 141.9721 93.56392 54.2553 114.0815 127.4056 63.97544 114.2752 126.5723 50.80238 96.87934 109.2523 65.44081 103.2491 119.0761 68.25766 84.74237 99.01451 68.60882 76.9223 83.83966 60.76802 72.71868 85.6306 60.10239 68.47515 97.86262 66.19725 80.9466 92.11273 63.96472 67.09686 88.31526 59.70888 63.31943 97.3468 63.31157 50.52196 83.65026 64.44979 156.565 95.52715 67.80813 153.3211 99.07588 61.92348 149.2829 102.1205 49.43692 151.5866 99.57872 54.19078 157.8029 111.4882 70.38184 153.4738 112.2221 64.2344 150.687 110.3424 49.43692 154.0571 110.983 54.19078 124.3281 137.4463 57.90476 125.4147 136.6655 63.97544 125.1575 135.8497 50.80238 140.9329 139.3417 57.90476 141.464 138.1135 63.97544 140.8241 137.5458 50.80238 154.8553 132.8975 68.13974 152.3852 131.0084 61.92348 149.7174 126.712 49.43692 152.041 129.2356 54.19078 136.5826 124.8122 49.38479 145.4727 114.8789 49.49322 112.4477 129.2587 69.27517 123.7756 140.3409 68.49279 142.5896 142.7462 68.84005 47.66621 121.0301 66.0632 50.11559 124.7898 66.13945 42.07164 114.0119 66.14196 57.77001 132.2309 67.49808 30.43574 129.7996 73.06477 46.60403 142.4727 68.76866 26.37041 146.7728 81.20319 32.63911 147.4078 69.88109 32.13566 160.138 77.26674 27.86715 160.5893 77.51728 27.51148 162.3554 86.44795 32.98942 159.6484 70.76995 59.85073 127.7888 74.64533 69.25934 133.944 77.93207 48.58532 102.7996 72.3236 47.98915 95.1104 69.39994 45.45378 106.9998 73.92726 120.4773 136.4657 68.95986 115.2293 131.8832 69.17176 117.6763 131.6636 65.10794 119.9932 133.5577 65.11788 117.2099 139.5835 68.10364 112.5458 135.5851 68.38573 113.5012 136.9244 64.5734 115.8181 138.8185 64.58334 110.9487 145.6811 63.43116 106.9816 140.9885 63.68151 107.5337 142.6405 59.91242 109.5259 144.8737 59.93279 101.3002 149.4774 62.57385 101.0884 143.3578 62.00192 100.38 145.443 58.71416 100.5402 148.4458 58.93061 92.76084 146.5669 63.70069 96.03067 141.3613 63.52616 94.22309 142.4372 59.94631 92.71377 145.012 60.16588 35.46321 164.8768 78.41748 32.20587 167.2882 78.74253 41.07823 168.3232 78.88834 38.70755 171.6241 79.34233 64.92831 150.4811 69.24597 31.08801 169.7176 87.30468 39.09097 174.8929 88.96556 35.99787 164.6186 70.32298 41.42356 168.2232 69.74137 45.98747 156.4352 69.34293 54.97985 164.5383 79.06761 67.5045 138.0467 69.15446 48.42086 171.094 79.06761 46.37918 167.9264 78.44138 48.02537 170.886 89.51708 46.07438 168.1206 69.31182 52.99371 161.0191 78.44138 56.05109 167.7396 89.90327 53.23083 161.3386 69.31182 91.96067 177.8012 69.31182 85.05467 178.1104 92.67573 92.35855 177.8045 84.92673 88.3533 177.2688 85.55296 85.80453 166.4226 83.4076 89.01087 163.9633 82.78137 81.70606 170.0126 92.59048 88.72773 164.2428 69.31182 70.6432 158.6517 69.31182 69.39262 167.0299 90.80285 70.70185 158.2581 80.24054 69.61383 162.1498 80.86677 83.69743 197.592 69.31182 79.77821 193.1158 99.8468 83.96867 197.8831 90.64179 81.60284 194.6071 91.26802 62.10978 205.5054 69.31182 62.01618 199.5567 107.1684 62.12835 205.9029 97.96336 62.44311 201.8742 98.58959 44.91406 201.9323 77.71649 52.66782 195.8204 110.4947 48.00905 200.1311 101.2897 51.22359 197.6825 101.9159 37.07492 188.6091 96.31826 46.33678 188.6898 113.2603 40.00825 189.1756 104.0553 44.04844 189.2525 104.6815 27.28221 181.8634 92.48122 47.95555 181.6079 115.8631 43.1896 177.4161 106.6581 45.95512 180.3624 107.2843 56.11396 175.1708 117.4166 55.42026 168.8617 108.2116 55.47629 172.9022 108.8378 25.2734 185.0866 82.6213 65.96871 174.5485 119.5735 69.4065 169.213 110.3685 66.90344 172.3853 110.9947 73.81191 181.003 122.5614 78.37245 174.3951 112.5599 75.14146 176.822 113.1861 71.92364 104.8611 83.99829 93.27549 111.6261 79.1688 99.64527 121.4499 81.98565 81.1385 101.3883 82.33681 109.4642 131.8842 80.70901 119.8996 142.193 79.33286 62.26536 112.0572 84.35566 61.56669 126.4234 84.4508 70.82134 131.6056 84.58934 115.2253 134.3792 75.62698 118.0785 136.8848 75.56214 120.3849 150.7516 77.08039 74.76263 111.6514 90.6949 88.60171 116.394 89.30545 94.79144 124.9673 88.74844 81.75093 110.3147 89.48233 104.0426 136.0311 87.92755 115.8594 144.5448 82.73371 70.61744 115.6058 90.5718 70.10031 126.2394 90.64221 74.02137 129.7532 91.01789 124.8611 148.6443 67.41371 115.9099 151.513 80.64203 160.5387 136.6299 68.15575 145.451 150.0278 68.90599 165.1438 111.6175 70.37065 159.4079 94.13722 70.67796 146.9305 81.74974 71.54537 138.7967 64.69762 66.91069 150.6552 76.56616 75.2271 141.9763 61.36192 64.36004 144.5303 63.10472 68.10989 148.7784 61.65407 68.4617 142.494 58.95009 64.15872 151.3325 63.39686 72.21155 149.3168 59.31258 68.33045 130.9045 44.2692 66.48045 137.8045 54.94972 65.28578 144.0239 56.88235 67.80098 151.0472 57.02625 72.9752 124.4366 29.42972 62.70005 123.8247 34.66657 66.48044 128.1244 33.51967 69.509 138.376 43.459 73.40312 147.0948 43.1037 76.55609 164.5417 86.93558 78.45035 159.2621 69.80513 79.67628 158.2897 53.00218 79.80673 141.8454 30.5247 75.93675 152.8432 34.29964 81.43422 138.2013 26.06131 69.24412 137.1004 26.72819 62.12961 175.4506 100.1091 78.79006 134.457 25.18068 55.16883 135.0204 25.36496 50.46184 136.6933 22.57588 42.92624 178.5113 130.0633 67.0219 170.7987 82.16004 88.01158 180.5941 92.87558 86.9365 160.2533 36.64595 88.84526 167.1094 69.27843 88.06548 114.7059 158.7503 76.97133 163.543 53.15437 88.18231 115.22 162.0263 66.72415 112.9841 155.0791 80.33451 105.2002 158.3548 77.86837 101.6767 161.1315 68.8722 107.2101 154.5638 80.92481 85.46262 146.0004 80.85918 81.9527 148.9707 69.50773 87.47249 142.2095 83.91562 71.21022 188.8294 125.7153 61.05492 193.4104 126.2208 80.65054 181.8044 115.49 76.7463 182.1126 115.4011 75.95054 192.0807 118.2012 73.74746 189.7541 118.2546 61.7585 196.9817 120.2219 61.43253 194.3978 120.278 52.24113 193.4138 123.6732 53.6179 191.755 123.597 49.43238 186.6476 125.3469 51.65213 186.763 125.274 54.30131 178.4666 126.3396 55.99997 179.7945 126.2749 55.16017 192.044 126.3501 52.08766 186.4296 126.5237 64.59355 175.7903 126.14 72.68936 181.4448 125.874 19.60474 176.7272 94.95578 19.75607 147.1455 92.04987 26.76521 128.7565 82.7759 13.46914 176.3126 85.14228 8.873219 148.0511 85.33206 17.26888 125.9166 81.2397 38.51282 100.1713 71.64752 41.23473 87.82703 63.52501 88.46398 139.5321 89.89611 88.72773 164.2428 -19.26545 101.6767 161.1315 -19.70507 117.1378 158.9983 42.00683 103.0052 160.5664 35.55325 126.1416 150.4615 46.33826 147.4466 153.2312 49.46975 166.7767 142.1164 43.28138 184.5026 135.0386 42.82299 91.8326 176.2764 32.04706 88.09481 164.084 33.6457 83.77095 199.9318 36.80911 60.15136 208.175 48.71712 38.37465 203.7326 54.80538 18.78429 186.8492 59.78093 6.607253 176.5937 60.74226 2.175041 147.77 61.64087 12.70769 124.561 60.56684 33.40998 99.38063 54.00778 51.28215 77.75463 55.95182 44.61272 84.73662 49.32695 40.64232 87.11342 40.11811 80.09687 118.4121 90.69613 83.78437 119.3903 90.43672 85.44107 123.7106 90.36244 80.09687 118.4121 89.53407 77.17171 121.3238 90.94208 77.31121 124.6474 90.96807 81.70927 127.1083 90.67276 83.78437 119.3903 89.27466 85.44107 123.7106 89.20038 77.17171 121.3238 89.78002 77.31121 124.6474 89.806 81.70927 127.1083 89.51071 79.34452 113.8873 86.91637 86.94523 115.9036 86.38167 90.36 124.8085 86.22857 73.31516 119.8889 87.42332 73.6027 126.7396 87.47689 82.668 131.812 86.8682 78.66827 110.581 80.14681 89.30186 113.4018 79.39875 94.0792 125.86 79.18457 70.23305 118.9773 80.85604 70.63533 128.5616 80.93099 83.31791 135.6581 80.07942 79.23064 113.3305 65.96604 87.34207 115.4823 65.39542 90.98628 124.9855 65.23204 72.79616 119.7354 66.50706 73.10302 127.0464 66.56423 82.77745 132.4597 65.91464 87.71438 140.3927 69.1022 93.69316 135.6434 67.73148 90.57784 135.3135 63.35159 88.12269 136.9568 63.82892 85.8325 137.5535 72.94258 92.97171 131.2209 72.2213 88.61103 131.4839 64.75954 86.34102 133.4271 64.92449 87.25631 134.9807 76.42063 91.49227 131.2989 75.9972</float_array>
          <technique_common>
            <accessor source="#Cube_003-mesh-positions-array" count="451" stride="3">
              <param name="X" type="float"/>
              <param name="Y" type="float"/>
              <param name="Z" type="float"/>
            </accessor>
          </technique_common>
        </source>
        <source id="Cube_003-mesh-normals">
          <float_array id="Cube_003-mesh-normals-array" count="1362">0.008240163 0.008545339 0.9999296 -0.3547838 0.4314476 0.8294464 -0.4664196 0.3215771 0.8240394 -0.5336349 0.1416718 0.8337644 -0.02758908 -0.0313124 0.9991288 0.01025432 0.007507622 0.9999193 0.02975565 0.03057968 0.9990894 0.02563577 0.06891143 0.9972934 -0.3888473 -0.6929118 0.6071829 -0.5167036 -0.5341305 0.6691204 -0.1251282 -0.7989586 0.5882245 -0.5537969 -0.543512 0.6307962 0.2423548 -0.5794724 0.7781234 0.1563511 -0.489715 0.8577491 0.5212118 0.0232253 0.8531113 -0.01361155 -0.03418153 0.999323 -0.05377548 -0.7283807 0.6830591 -0.4820215 -0.2171141 0.8488327 -0.1120363 -0.5180041 0.8480092 -0.7444562 -0.2271548 0.6278421 0.4757362 -0.5899091 0.6524434 -0.1724008 -0.926155 0.3354325 -0.8842408 -0.3631818 0.2936279 -0.9367107 -0.3447698 0.06088477 -0.9736998 -0.2206503 0.05676478 0.02136296 -0.9953922 0.0934782 -0.7960323 -0.364796 0.4829664 -0.4913614 0.5295107 0.6915073 0.6665474 -0.3925427 0.6337388 0.717636 -0.6588859 -0.2255392 -0.09293168 -0.9950559 0.03503632 0.8382375 -0.4446327 -0.3156895 -0.4623044 -0.6243919 -0.6296105 -0.8584756 0.4816851 -0.1760655 -0.5884463 0.7790099 -0.2165052 -0.6544568 0.2930467 0.6970008 0.523185 0.626003 -0.5782715 0.3620188 -0.8368366 0.4106664 0.3036978 -0.9256818 0.2255683 -0.8761814 0.3320816 0.349325 -0.8350989 0.2074395 0.5094888 -0.7837284 0.5464125 0.295302 0.4299253 -0.6530519 0.6234481 0.5033218 0.3213971 0.8021042 -0.3272513 -0.5852559 0.7418774 0.5630161 0.4095356 0.7178395 0.6721919 0.4866639 0.5579574 0.752671 -0.009003221 0.6583353 -0.28841 -0.9440316 0.1600751 -0.7276458 -0.6857731 0.0157175 -0.08981639 -0.4948599 0.8643187 -0.6392776 -0.7679755 0.03921663 -0.7095758 -0.7013966 0.06741732 -0.4690777 -0.8828548 0.02310287 -0.4334004 -0.9011346 -0.0109868 -0.7129068 -0.6335558 0.3006178 -0.4749745 -0.8460301 0.2421414 -0.4169867 -0.8544518 0.309894 -0.5701265 -0.8161407 0.09418177 -0.3883789 -0.9214767 0.00653094 -0.4149991 -0.9093481 0.0293594 -0.4158905 -0.8852819 0.2081131 -0.6512198 -0.7488814 0.1228399 -0.6557448 -0.7436718 0.1301967 -0.317674 -0.7663972 0.5583176 -0.5915607 -0.6985928 0.4025225 0.008697926 -0.443078 0.8964409 0.7146187 0.545448 0.4379576 -0.3653767 -0.5949428 0.7159212 0.6758781 0.1456376 0.7224809 0.7881039 0.08835381 0.6091684 -0.8983274 -0.3666555 0.2420158 -0.4902559 -0.3440092 0.8008164 0.7139295 -0.2481189 0.6547837 0.8628467 -0.1570837 0.4804376 -0.8409328 -0.295825 0.4531222 -0.7063387 -0.3440746 0.6186262 0.5202003 -0.4730481 0.7110676 0.8181275 -0.09589123 0.5669853 -0.6353856 -0.5149251 0.5754453 0.5777602 -0.0794416 0.8123313 0.3001885 0.5064384 0.808336 0.785798 0.2124108 0.5808643 0.7240504 -0.07245385 0.6859312 0.9468066 -0.02392727 0.3209125 0.1901624 -0.08359086 0.9781876 0.6241861 0.09799826 0.7751053 0.5684157 -0.1035508 0.8161991 -0.4944077 -0.2441519 0.8342367 0.2516334 0.2389372 0.9378644 -0.4745699 0.2054536 0.8559044 -0.6169203 -0.6261982 0.4767444 -0.6638901 0.1331259 0.7358856 -0.4978678 0.3356251 0.7996771 -0.6071509 -0.4084703 0.681557 -0.5740044 -0.7630401 0.2971345 -0.4214934 -0.8983477 0.1237532 -0.5212705 -0.8356503 0.1731057 -0.08542394 -0.4189407 0.9039865 -0.03753781 -0.04928743 0.998079 0.006561636 0.009186327 0.9999364 0.03531104 0.08350133 0.9958819 -0.5304525 -0.6721221 0.5165967 -0.4450901 0.3784975 0.811563 -0.3164871 0.2601481 0.9122275 -0.3950114 0.2845621 0.8734933 -0.4308323 -0.9002096 0.06329572 -0.4079204 -0.9061778 0.1115478 -0.3784965 -0.9183164 0.1159111 -0.5452626 -0.7299365 0.4121668 -0.3738563 -0.8937759 0.2477827 -0.7702285 -0.341242 0.5387968 0.6649755 -0.05694818 0.7446908 0.9550073 -0.03119063 -0.2949377 0.935025 0.2977479 0.1925473 -0.1181381 0.9846578 -0.128423 -0.07843375 0.6063817 0.7912962 -0.08908623 0.9959712 -0.0102545 -0.1124615 -0.8529377 0.5097545 0.1128306 -0.02423244 0.9933187 -0.1067252 0.7571175 0.6445021 -0.2837973 -0.5007272 0.8177599 -0.8550478 -0.08722299 0.5111609 0.5765131 0.3684007 0.7293241 -0.3773713 -0.4836701 0.7897179 -0.3901274 -0.07956361 0.9173169 -0.4877865 -0.462181 0.7405762 -0.1306527 -0.612093 0.7799181 -0.4674021 -0.2783965 0.8390654 -0.0215767 0.4660518 0.8844943 0.06955426 0.6015118 0.7958303 -0.2959104 0.574486 0.7631533 -0.2837097 0.7081757 0.6465262 -0.03424257 -0.07403969 0.9966673 -0.02258414 -0.6730692 0.7392346 0.663609 0.6812492 0.3090677 0.5223031 0.5275218 0.6700153 0.8061729 0.5699824 -0.1587625 0.5243822 0.3386725 0.7812325 0.8612577 0.5045773 -0.06030631 0.712323 -0.1430749 0.687114 0.8040567 -0.5942377 0.01934909 0.9982473 -0.01599192 0.056979 0.7897754 -0.2512034 0.5595997 0.7396599 -0.6446845 0.193094 0.5717667 -0.5572093 0.6021633 0.355546 -0.6961072 0.6237162 0.5414469 -0.7319803 0.4135701 0.02169883 -9.46082e-4 0.9997642 0.0397666 -0.02105826 0.9989871 0.264998 0.9619951 0.0658909 0.09811735 0.9948463 0.02557456 0.1249753 0.6403498 0.7578479 -0.2449173 0.5230398 0.8163607 0.07700097 0.9731789 0.2167808 -0.0639975 0.9977142 0.02169871 -0.01715201 0.7384529 0.674087 -0.4045943 0.8564326 0.3206663 -0.2334427 0.3705968 0.8989787 0.705911 0.3190181 0.6323901 0.6669948 -0.5629247 0.4880919 0.3343139 -0.7730056 0.5391629 -0.2941105 -0.7736539 0.5612119 0.1236937 -0.8626514 0.4904411 0.3475196 -0.6024751 0.7185083 -0.8637268 -0.4776576 0.1606841 -0.8018422 0.3451159 0.4877952 -0.8974909 0.290608 0.3317484 -0.5886144 -0.6799263 0.4373026 -0.7203426 -0.2950893 0.6277171 -0.3303396 -0.4254374 0.8425431 -0.4582179 -0.807909 0.3705663 0.5193836 -0.4210492 0.7436116 -0.3205998 0.8821454 0.3450148 -0.7448484 0.5410116 0.390522 -0.4574474 0.2881592 0.8412528 -0.6295197 0.3199634 0.7080456 -0.8149867 0.4083784 0.4111251 -0.9591366 0.01806753 0.2823665 -0.482759 0.03167933 0.8751801 -0.4551637 0.004120051 0.8903983 -0.9527747 -0.05819982 0.2980492 0.4052634 -0.9136509 0.03167879 0.3786186 -0.8872787 0.2634094 -0.250198 -0.9669764 0.04855632 -0.2506529 -0.9128247 0.3223727 0.2841948 -0.6386144 0.715126 -0.8532028 -0.415004 0.3159378 -0.4950199 -0.2092695 0.843304 -0.354235 -0.1859222 0.9164881 -0.835666 -0.4748116 0.2760732 -0.2145214 -0.7000862 0.6810726 0.03277766 -0.03869843 0.9987133 0.01577818 0.006286859 0.9998558 -0.08789515 -0.2784874 0.9564096 0.585906 -0.3980609 0.7058767 0.5629609 -0.4177801 0.7131163 0.6536241 -0.663268 0.3644877 0.7005915 -0.3476711 0.6231345 0.8161405 -0.2685066 0.5116824 0.3585051 -0.03814852 0.932748 0.1028786 -0.1312305 0.9859993 0.1240299 -0.09433478 0.9877841 0.05777317 -0.06402963 0.9962744 0.4075922 0.4710124 0.7823145 0.7107948 -0.2262396 0.6660229 0.5185596 -0.3951992 0.7582306 -0.3585109 0.05987894 0.9316033 0.2479083 -0.7276414 0.6395931 -0.2496497 -0.6568413 0.7115017 0.152687 -0.6411753 0.7520512 0.274885 -0.3911015 0.8783381 0.05227935 -0.5332927 0.8443139 0.349997 -0.2631081 0.8990419 0.274337 0.07388693 0.9587909 0.4257096 -0.7518967 0.503411 0.3063575 -0.6047187 0.7351602 0.7708771 -0.4797572 0.4190246 -0.57498 -0.2176928 0.7886748 0.2313343 0.5695464 0.7887341 0.622352 0.6765545 0.3936395 -0.6491114 -0.6407492 0.409994 -0.4764149 -0.3449048 0.8087456 0.005951285 0.538729 0.8424583 0.366999 0.8323019 0.4154337 -0.05975735 -0.956118 0.2868232 0.0237137 -0.6706982 0.7413511 -0.01220762 0.3188948 0.9477116 0.01400852 0.867735 0.4968296 0.693315 -0.6615441 0.285786 0.6005382 -0.3800326 0.703512 -9.15563e-5 0.4435598 0.8962448 -0.4933168 0.7410128 0.4555642 0.4678024 -0.5290245 0.7080212 0.3745914 -0.5549898 0.7427433 0.1226281 -0.7194713 0.6836107 0.5083261 -0.5331991 0.6762421 0.5565497 -0.4981663 0.6648931 0.04437506 -0.02188235 0.9987753 -0.2837345 -0.568232 0.7724036 -0.4076432 -0.7217455 0.559384 -0.01782327 -0.02453756 0.9995401 -0.3868317 0.4027627 0.8295442 -0.3742851 -0.9219182 0.09988868 -0.2538618 -0.79769 0.5470328 -0.2597802 -0.7467461 0.6122781 -0.2782102 -0.948527 0.1513126 -0.3111997 -0.4861943 0.8165597 0.0684852 -0.9580304 0.2783663 0.2089959 -0.4317865 0.8774288 0.5963993 -0.7152092 0.364395 -0.002655088 -0.8192161 0.5734788 0.857362 0.1525684 0.4915823 0.577459 -0.6102064 0.5423922 0.8318315 -0.04242169 0.5534048 0.5283219 -0.2092107 0.8228651 -0.07040864 -0.5767285 0.8138962 0.9971226 0.07474142 -0.01266545 0.942271 -0.07327586 0.3267353 0.04272693 -0.6592462 0.7507123 0.6131054 0.1748765 0.7704026 0.7499688 0.6242314 0.2188197 0.6969152 0.7169055 0.01886111 0.6668497 0.5233169 0.5305195 0.2790963 0.5839506 0.7623037 0.04944086 0.973863 0.2216904 0.09628653 0.9935675 0.05960303 0.1417297 0.8044476 0.5768681 -0.1988958 0.6383468 0.7436087 -0.5040183 0.8392065 0.2042014 -0.4268754 0.8918085 0.1498504 -0.3665036 0.6925694 0.6213074 -0.4945083 0.3805788 0.7814227 -0.9267812 0.2927111 0.2353652 -0.83157 0.323936 0.4511726 -0.6894276 0.2764425 0.6695291 -0.6108487 -0.1757621 0.7719919 -0.8495419 -0.4599295 0.2583479 -0.2905461 -0.7420523 0.6041039 -0.3376916 -0.5292281 0.7783843 -0.3777083 -0.8956229 0.2349385 -0.6319529 -0.3834688 0.673489 -0.0204479 -0.6613844 0.7497683 0.2119258 -0.9394138 0.2694242 0.07941013 -0.7784148 0.6227074 0.229506 -0.5520657 0.8015924 0.8540496 -0.3466372 0.3878687 0.4861388 -0.5801376 0.6535361 -0.2746418 0.3362599 0.9008336 -0.5632578 0.7790879 0.2752504 -0.2573117 -0.7152599 0.6497647 0.6724323 -0.613591 0.4139336 0.1294925 -0.8900899 0.4370031 -0.3914116 -0.8246348 0.4083804 0.6340479 -0.5545134 0.5389789 0.6770424 -0.5422077 0.4976189 -0.7957583 -0.4299854 0.4264757 -0.5665856 0.7294961 0.3831663 -0.4928947 0.7325361 0.4695165 0.6332187 -0.6805239 0.3686756 0.6537576 -0.6258628 0.4253194 0.7680738 -0.2254444 0.5993643 0.8098565 0.3204206 0.491389 0.2617618 -0.4712445 0.8422645 -0.142006 -0.3891205 0.9101756 -0.3392869 -0.1850406 0.9223039 -0.4064872 0.2603301 0.8757833 0.4227225 -0.3647053 0.8296359 -0.3142619 0.4150686 0.8537901 0.4635797 0.03613418 0.8853182 0.4270564 0.3248474 0.8438584 0.3914077 -0.08987879 0.9158177 0.3999555 -0.2371044 0.8853344 0.600929 0.5805724 0.5493815 0.2910028 0.4973141 0.8173103 0.2115256 0.6710162 0.7106295 -0.1662098 0.1829651 0.9689675 -0.5144082 0.3228366 0.7944563 -0.4056005 0.2847139 0.8685772 -0.4659317 0.06509673 0.8824228 -0.6411798 -0.3888158 0.6615972 -0.4334909 -0.4467971 0.782597 -0.3473449 -0.585826 0.7322291 -0.4764062 0.262588 0.8390975 -0.5350955 -0.4646264 0.705546 -0.6624764 -0.1343142 0.7369428 -0.674388 0.2795275 0.6834218 -0.4398971 0.6028673 0.6656138 -0.6489635 0.2944812 0.7015178 -0.5363375 0.5594097 0.6319834 -0.6381919 0.4385948 0.6327289 -0.6767322 0.05462932 0.7341998 -0.440814 -0.8807429 0.1731333 -0.5495694 -0.1833017 0.8150914 -0.4417979 0.3119992 0.841113 -0.4241232 0.2574587 0.8682364 -0.5431186 0.3961995 0.7403028 -0.650719 0.08847361 0.7541468 -0.7180883 0.1749976 0.6735912 -0.4498515 -0.08963453 0.888594 -0.5676602 0.2140933 0.7949378 -0.4020627 -0.7899339 0.4629794 -0.2988115 -0.9537492 0.03277736 -0.4848633 0.3527138 0.8003128 -0.402058 -0.9134659 0.06268614 -0.4292236 -0.8833509 0.1883041 0.1952625 0.6383724 0.7445491 -0.542206 0.4812284 0.6887903 -0.6510723 0.3981268 0.6462197 -0.7117017 0.1860435 0.6773985 -0.8184084 0.1380698 0.5578033 -0.7572349 0.243907 0.6058917 0.4067287 0.7625514 0.5030777 0.2052116 0.4388673 0.8748049 0.3850297 0.9166126 0.10758 -0.1681299 0.7967324 0.5804739 -0.007202446 0.4935834 0.8696687 -0.002899289 0.9717693 0.2359152 -0.4169194 0.6751098 0.608609 -0.3683096 0.6759158 0.6383463 -0.3197197 0.4499759 0.8338471 0.6793211 -0.1341918 0.7214677 0.4604711 -0.2935931 0.8377169 0.5208057 0.1363281 0.8427194 0.5292314 0.4518656 0.7181446 0.5538042 0.4443923 0.7041424 0.1167051 0.7221434 0.6818276 0.2736999 0.5079684 0.8167353 0.07117009 0.7082831 0.7023319 -0.3250039 0.6267823 0.7081783 -0.1100829 0.534789 0.8377843 -0.6495375 0.07883071 0.7562321 -0.4306266 0.2213866 0.8749564 -0.4079485 -0.5080205 0.7586127 -0.01165837 0.02319473 0.999663 -0.6709386 -0.07761079 0.7374403 -0.3485327 0.6354466 0.6890084 0.133551 -0.6759951 0.7247033 0.6406361 -0.2437292 0.7281357 -0.2688421 0.3186491 0.9089481 0.1498506 -0.2279804 0.9620654 0.5210906 -0.1443269 0.8412101 -0.5533132 -0.5381758 0.6357762 -0.8186035 -0.1488398 0.5547387 -0.4013292 -0.5497751 0.732586 -0.6424929 -0.6257683 0.4422861 -0.1734697 0.4860447 0.8565448 -0.7964174 0.4896124 0.3549636 -0.2732988 0.3822826 0.8827049 0.2199806 0.4619349 0.8592001 0.03781336 -0.4866296 0.8727898 -0.3936031 -0.1231745 0.9109911 0.2336211 0.9723277 0 0.3527042 0.9349089 -0.03930801 0.183266 0.9830139 -0.009857594 0.4001373 0.9152711 0.04657226 0.2909395 0.9341315 0.2067675 0.4366673 0.850903 0.2920373 0.3628123 0.8909777 0.2729943 0.770294 0.6370185 0.02923697 0.9040168 0.427486 -0.003082454 0.9999931 0.00137335 -0.003479182 0.1412134 0.9841298 0.1074589 -0.3869773 0.9029877 0.1867135 -0.6005561 0.7707005 0.2129627 -0.8474645 0.4718614 0.2432096 -0.9566872 -0.1223822 0.2641442 -0.8071351 -0.5479375 0.219767 -0.7950253 -0.5820012 0.1709075 -0.6375816 -0.7120797 0.2939938 -0.7635847 -0.6396472 0.08826088 -0.7615839 -0.6262603 0.1666975 0.2333932 0.972356 -0.007184624 0.4588915 -0.2820003 0.8425523 0.5320431 0.1804912 0.8272565 0.1785663 0.7904406 -0.5859332 0.7623677 0.3246624 -0.5598123 0.6776453 -0.4455478 -0.5850505 -0.1198791 -0.7794889 -0.6148383 -0.5721141 0.5928062 -0.5668038 -0.7792789 -0.16868 -0.603549 0.1665445 0.7464748 -0.6442347 -0.533298 0.5620169 -0.6322423 -0.1135007 -0.7372209 -0.6660503 -0.7461621 -0.1581806 -0.6467003 0.6989296 0.2997025 -0.6493657 0.6307339 -0.4024526 -0.6634807 0.8423911 -0.5210239 -0.1375195 0.01187199 -0.9522653 -0.305041 -0.6679254 0.7356488 -0.112679 0.9243445 0.3590011 -0.1292501 0.24659 0.9613348 -0.1225931 -0.9666084 -0.101843 -0.2351515 0.2234297 0.6997399 0.6785597 0.3983331 -0.5275198 0.7503691 -0.2450106 0.2263937 0.9427171 0.4902375 -0.1652945 0.8557716 0.646064 -0.3826515 0.6604385 -0.6390506 0.09384781 0.763418 -0.4515882 0.5380178 0.7117619 0.6959728 0.2563966 0.6707329 0.7058894 -0.117165 0.6985647 -0.2385367 0.4771955 0.8458042 -0.6955701 0.5676323 0.440427 0.8898161 -0.3604005 0.279891 -0.9707943 9.15585e-5 0.2399137 0.6832102 -0.7223668 0.1068183 -0.5493727 -0.6958944 -0.4625155 -0.6817299 -0.5849241 -0.4394408 0.603115 -0.6707446 0.4316875 -0.718336 -0.564457 0.4066715 -0.4425366 -0.8685316 0.223191 0.2306256 0.9730061 -0.008426249 0.5820602 -0.7140206 0.3890765</float_array>
          <technique_common>
            <accessor source="#Cube_003-mesh-normals-array" count="454" stride="3">
              <param name="X" type="float"/>
              <param name="Y" type="float"/>
              <param name="Z" type="float"/>
            </accessor>
          </technique_common>
        </source>
        <source id="Cube_003-mesh-map-0">
          <float_array id="Cube_003-mesh-map-0-array" count="5130">0.625 0.5 0.875 0.75 0.625 0.75 0.625 0.5 0.625 0.75 0.625 0.5 0.625 0.5 0.625 0.5 0.625 0.5 0.625 0.5 0.875 0.5 0.875 0.5 0.875 0.5 0.875 0.5 0.875 0.5 0.875 0.5 0.875 0.75 0.875 0.75 0.875 0.5 0.875 0.5 0.875 0.5 0.625 0.5 0.625 0.5 0.625 0.5 0.625 0.5 0.875 0.5 0.875 0.5 0.625 0.5 0.625 0.5 0.625 0.5 0.625 0.5 0.625 0.5 0.625 0.5 0.625 0.5 0.625 0.75 0.625 0.5 0.625 0.5 0.625 0.5 0.625 0.5 0.625 0.5 0.625 0.5 0.625 0.5 0.625 0.75 0.625 0.5 0.625 0.5 0.625 0.5 0.625 0.75 0.625 0.5 0.625 0.5 0.625 0.5 0.625 0.5 0.625 0.5 0.625 0.5 0.625 0.5 0.625 0.5 0.625 0.5 0.625 0.5 0.625 0.5 0.625 0.5 0.625 0.5 0.625 0.5 0.625 0.5 0.625 0.5 0.625 0.5 0.625 0.5 0.625 0.5 0.625 0.5 0.625 0.5 0.625 0.5 0.625 0.5 0.625 0.5 0.625 0.5 0.625 0.5 0.625 0.5 0.625 0.5 0.625 0.5 0.625 0.5 0.625 0.5 0.625 0.5 0.625 0.5 0.625 0.5 0.625 0.5 0.625 0.5 0.625 0.5 0.625 0.75 0.625 0.75 0.625 0.75 0.625 0.75 0.625 0.75 0.625 0.75 0.875 0.75 0.875 0.75 0.875 0.75 0.625 0.75 0.875 0.75 0.625 0.75 0.875 0.5 0.875 0.5 0.875 0.5 0.625 0.5 0.875 0.5 0.875 0.5 0.875 0.5 0.625 0.5 0.875 0.5 0.875 0.5 0.875 0.5 0.875 0.5 0.875 0.5 0.875 0.5 0.875 0.5 0.625 0.5 0.625 0.5 0.625 0.5 0.625 0.5 0.625 0.5 0.625 0.5 0.875 0.5 0.875 0.5 0.875 0.5 0.875 0.5 0.875 0.5 0.875 0.5 0.875 0.5 0.875 0.75 0.875 0.75 0.875 0.5 0.875 0.5 0.875 0.5 0.875 0.5 0.875 0.75 0.875 0.75 0.875 0.5 0.875 0.5 0.875 0.5 0.875 0.5 0.875 0.5 0.875 0.5 0.875 0.5 0.875 0.5 0.875 0.5 0.875 0.5 0.875 0.5 0.875 0.5 0.875 0.5 0.875 0.5 0.875 0.5 0.875 0.5 0.875 0.5 0.875 0.5 0.875 0.5 0.875 0.5 0.875 0.5 0.875 0.5 0.875 0.5 0.875 0.5 0.875 0.5 0.875 0.5 0.875 0.5 0.875 0.5 0.875 0.5 0.875 0.5 0.875 0.5 0.875 0.5 0.875 0.5 0.875 0.5 0.875 0.5 0.875 0.5 0.625 0.5 0.625 0.5 0.625 0.5 0.875 0.5 0.875 0.5 0.875 0.5 0.875 0.5 0.625 0.5 0.875 0.5 0.625 0.5 0.625 0.5 0.625 0.5 0.875 0.5 0.875 0.5 0.875 0.5 0.875 0.5 0.625 0.5 0.875 0.5 0.625 0.5 0.625 0.5 0.625 0.5 0.875 0.5 0.875 0.5 0.875 0.5 0.625 0.5 0.875 0.5 0.875 0.5 0.625 0.5 0.625 0.5 0.625 0.5 0.875 0.5 0.875 0.5 0.875 0.5 0.875 0.5 0.625 0.5 0.875 0.5 0.875 0.5 0.875 0.5 0.875 0.5 0.625 0.5 0.625 0.5 0.625 0.5 0.875 0.5 0.625 0.5 0.875 0.5 0.625 0.75 0.625 0.75 0.625 0.75 0.625 0.75 0.875 0.75 0.625 0.75 0.625 0.75 0.625 0.75 0.625 0.75 0.875 0.75 0.875 0.75 0.875 0.75 0.875 0.75 0.875 0.75 0.875 0.75 0.875 0.75 0.875 0.75 0.875 0.75 0.875 0.75 0.875 0.75 0.875 0.75 0.875 0.75 0.875 0.75 0.875 0.75 0.625 0.75 0.625 0.75 0.625 0.75 0.625 0.75 0.875 0.75 0.625 0.75 0.625 0.75 0.625 0.75 0.625 0.75 0.875 0.75 0.875 0.75 0.875 0.75 0.875 0.75 0.875 0.75 0.875 0.75 0.625 0.75 0.625 0.75 0.625 0.75 0.875 0.75 0.625 0.75 0.625 0.75 0.875 0.75 0.875 0.75 0.875 0.75 0.875 0.75 0.875 0.75 0.875 0.75 0.875 0.75 0.875 0.75 0.875 0.75 0.875 0.75 0.875 0.75 0.875 0.75 0.625 0.75 0.625 0.5 0.625 0.5 0.625 0.5 0.625 0.5 0.625 0.5 0.625 0.5 0.625 0.5 0.625 0.5 0.625 0.5 0.625 0.5 0.625 0.5 0.625 0.5 0.625 0.5 0.625 0.5 0.625 0.5 0.625 0.5 0.625 0.5 0.625 0.5 0.625 0.5 0.625 0.5 0.625 0.5 0.625 0.5 0.625 0.5 0.625 0.5 0.625 0.5 0.625 0.5 0.625 0.5 0.625 0.5 0.625 0.5 0.625 0.5 0.625 0.5 0.625 0.5 0.625 0.5 0.625 0.5 0.625 0.5 0.625 0.5 0.625 0.5 0.625 0.5 0.625 0.75 0.625 0.75 0.625 0.75 0.625 0.75 0.625 0.75 0.625 0.75 0.625 0.75 0.625 0.75 0.625 0.75 0.625 0.75 0.625 0.75 0.625 0.75 0.625 0.75 0.625 0.75 0.625 0.75 0.625 0.75 0.625 0.75 0.625 0.75 0.625 0.75 0.625 0.5 0.625 0.5 0.625 0.5 0.625 0.5 0.625 0.5 0.625 0.5 0.625 0.5 0.625 0.5 0.625 0.5 0.625 0.5 0.625 0.5 0.625 0.5 0.625 0.5 0.625 0.5 0.625 0.5 0.625 0.5 0.625 0.5 0.625 0.5 0.625 0.5 0.625 0.5 0.625 0.5 0.625 0.5 0.625 0.5 0.625 0.5 0.625 0.5 0.625 0.5 0.625 0.5 0.625 0.5 0.625 0.5 0.625 0.5 0.625 0.5 0.625 0.5 0.625 0.5 0.625 0.5 0.625 0.5 0.625 0.5 0.625 0.5 0.625 0.5 0.625 0.5 0.625 0.5 0.625 0.5 0.625 0.5 0.625 0.5 0.625 0.5 0.625 0.5 0.625 0.5 0.625 0.5 0.625 0.5 0.625 0.5 0.625 0.5 0.625 0.5 0.625 0.5 0.625 0.5 0.625 0.5 0.625 0.5 0.625 0.5 0.625 0.5 0.625 0.5 0.625 0.5 0.625 0.5 0.625 0.5 0.625 0.5 0.625 0.5 0.625 0.5 0.625 0.5 0.625 0.5 0.625 0.5 0.625 0.5 0.625 0.5 0.625 0.5 0.625 0.5 0.625 0.5 0.625 0.5 0.625 0.5 0.625 0.75 0.625 0.75 0.625 0.75 0.625 0.75 0.625 0.5 0.625 0.75 0.625 0.5 0.625 0.5 0.625 0.5 0.625 0.5 0.625 0.5 0.625 0.5 0.625 0.5 0.625 0.5 0.625 0.5 0.625 0.5 0.625 0.5 0.625 0.5 0.625 0.5 0.625 0.5 0.625 0.5 0.625 0.5 0.625 0.5 0.625 0.5 0.625 0.5 0.625 0.5 0.625 0.5 0.625 0.5 0.625 0.5 0.625 0.5 0.625 0.5 0.625 0.5 0.625 0.5 0.625 0.5 0.625 0.5 0.625 0.5 0.625 0.5 0.625 0.5 0.625 0.5 0.625 0.5 0.625 0.5 0.625 0.5 0.625 0.5 0.625 0.5 0.625 0.5 0.625 0.5 0.625 0.5 0.625 0.5 0.625 0.5 0.625 0.5 0.625 0.5 0.625 0.5 0.625 0.5 0.625 0.5 0.625 0.5 0.625 0.5 0.625 0.5 0.625 0.5 0.625 0.5 0.625 0.5 0.625 0.5 0.625 0.5 0.625 0.5 0.625 0.5 0.625 0.5 0.625 0.5 0.625 0.5 0.625 0.5 0.625 0.5 0.625 0.5 0.625 0.5 0.625 0.5 0.625 0.5 0.625 0.5 0.625 0.5 0.625 0.5 0.625 0.5 0.625 0.5 0.625 0.5 0.625 0.5 0.625 0.5 0.625 0.75 0.625 0.75 0.625 0.75 0.625 0.5 0.625 0.5 0.625 0.5 0.625 0.5 0.625 0.5 0.625 0.5 0.625 0.75 0.625 0.75 0.625 0.75 0.625 0.5 0.625 0.5 0.625 0.5 0.625 0.5 0.625 0.5 0.625 0.5 0.625 0.5 0.625 0.5 0.625 0.5 0.625 0.5 0.625 0.5 0.625 0.5 0.625 0.5 0.625 0.5 0.625 0.5 0.625 0.5 0.625 0.5 0.625 0.5 0.625 0.75 0.625 0.75 0.625 0.75 0.625 0.5 0.625 0.5 0.625 0.5 0.625 0.5 0.625 0.5 0.625 0.5 0.625 0.5 0.625 0.5 0.625 0.5 0.625 0.5 0.625 0.5 0.625 0.5 0.625 0.5 0.625 0.5 0.625 0.5 0.625 0.5 0.625 0.5 0.625 0.5 0.625 0.5 0.625 0.5 0.625 0.5 0.625 0.5 0.625 0.5 0.625 0.5 0.625 0.5 0.625 0.5 0.625 0.5 0.625 0.5 0.625 0.5 0.625 0.5 0.625 0.5 0.625 0.5 0.625 0.5 0.625 0.5 0.625 0.5 0.625 0.5 0.625 0.5 0.625 0.5 0.625 0.5 0.625 0.5 0.625 0.5 0.625 0.5 0.875 0.5 0.875 0.5 0.875 0.5 0.625 0.5 0.875 0.5 0.875 0.5 0.875 0.5 0.625 0.5 0.875 0.5 0.625 0.5 0.625 0.5 0.625 0.5 0.875 0.5 0.875 0.5 0.875 0.5 0.875 0.5 0.625 0.5 0.875 0.5 0.625 0.5 0.875 0.5 0.875 0.5 0.625 0.5 0.625 0.5 0.625 0.5 0.625 0.5 0.625 0.5 0.625 0.5 0.875 0.5 0.875 0.5 0.875 0.5 0.625 0.5 0.625 0.5 0.625 0.5 0.875 0.5 0.875 0.5 0.875 0.5 0.875 0.5 0.875 0.5 0.875 0.5 0.625 0.5 0.625 0.5 0.625 0.5 0.625 0.5 0.625 0.5 0.625 0.5 0.875 0.5 0.875 0.5 0.875 0.5 0.875 0.5 0.875 0.5 0.875 0.5 0.875 0.5 0.875 0.5 0.875 0.5 0.875 0.5 0.875 0.5 0.875 0.5 0.875 0.5 0.875 0.5 0.875 0.5 0.625 0.5 0.625 0.5 0.625 0.5 0.625 0.5 0.625 0.5 0.625 0.5 0.625 0.5 0.625 0.5 0.625 0.5 0.625 0.5 0.625 0.5 0.625 0.5 0.625 0.5 0.625 0.5 0.625 0.5 0.625 0.5 0.625 0.5 0.625 0.5 0.625 0.5 0.625 0.5 0.625 0.5 0.625 0.5 0.625 0.5 0.625 0.5 0.625 0.5 0.625 0.5 0.625 0.5 0.625 0.5 0.625 0.5 0.625 0.5 0.625 0.5 0.625 0.5 0.625 0.5 0.625 0.5 0.625 0.5 0.625 0.5 0.625 0.5 0.625 0.5 0.625 0.5 0.625 0.5 0.625 0.5 0.625 0.5 0.625 0.5 0.625 0.5 0.625 0.5 0.625 0.5 0.625 0.5 0.625 0.5 0.625 0.5 0.625 0.5 0.625 0.5 0.625 0.5 0.875 0.5 0.875 0.5 0.625 0.5 0.875 0.5 0.875 0.5 0.875 0.5 0.875 0.5 0.875 0.5 0.875 0.5 0.875 0.5 0.875 0.5 0.875 0.5 0.875 0.5 0.875 0.5 0.625 0.5 0.625 0.5 0.625 0.5 0.625 0.5 0.625 0.5 0.625 0.5 0.625 0.5 0.625 0.5 0.625 0.5 0.625 0.5 0.625 0.5 0.625 0.5 0.625 0.5 0.625 0.5 0.625 0.5 0.625 0.5 0.625 0.5 0.625 0.5 0.625 0.5 0.625 0.5 0.625 0.5 0.625 0.5 0.625 0.5 0.625 0.5 0.625 0.5 0.625 0.5 0.625 0.5 0.625 0.5 0.625 0.5 0.625 0.5 0.625 0.5 0.625 0.5 0.625 0.5 0.875 0.5 0.875 0.5 0.875 0.5 0.625 0.5 0.875 0.5 0.875 0.5 0.875 0.5 0.875 0.5 0.875 0.5 0.625 0.5 0.875 0.5 0.875 0.5 0.875 0.5 0.875 0.5 0.875 0.5 0.625 0.5 0.625 0.5 0.625 0.5 0.875 0.5 0.625 0.5 0.875 0.5 0.625 0.5 0.875 0.5 0.875 0.5 0.625 0.5 0.625 0.5 0.625 0.5 0.875 0.5 0.875 0.5 0.875 0.5 0.625 0.5 0.625 0.5 0.625 0.5 0.625 0.5 0.875 0.5 0.875 0.5 0.875 0.5 0.875 0.5 0.875 0.5 0.875 0.5 0.875 0.5 0.875 0.5 0.625 0.5 0.875 0.5 0.875 0.5 0.625 0.5 0.625 0.5 0.625 0.5 0.875 0.5 0.875 0.5 0.875 0.5 0.625 0.5 0.875 0.5 0.875 0.5 0.625 0.5 0.625 0.5 0.625 0.5 0.875 0.5 0.875 0.5 0.875 0.5 0.625 0.5 0.875 0.5 0.875 0.5 0.625 0.5 0.625 0.5 0.625 0.5 0.875 0.5 0.875 0.5 0.875 0.5 0.625 0.5 0.875 0.5 0.875 0.5 0.625 0.5 0.625 0.5 0.625 0.5 0.875 0.5 0.875 0.5 0.875 0.5 0.625 0.5 0.875 0.5 0.875 0.5 0.625 0.5 0.875 0.5 0.625 0.5 0.875 0.5 0.875 0.5 0.875 0.5 0.625 0.5 0.875 0.5 0.875 0.5 0.875 0.5 0.875 0.5 0.625 0.5 0.875 0.5 0.875 0.5 0.875 0.5 0.625 0.5 0.875 0.5 0.875 0.5 0.625 0.5 0.625 0.5 0.625 0.5 0.875 0.5 0.875 0.5 0.875 0.5 0.625 0.5 0.875 0.5 0.875 0.5 0.625 0.5 0.625 0.5 0.625 0.5 0.625 0.5 0.625 0.5 0.625 0.5 0.875 0.5 0.875 0.5 0.875 0.5 0.875 0.5 0.875 0.5 0.875 0.5 0.625 0.5 0.625 0.5 0.625 0.5 0.625 0.5 0.625 0.5 0.625 0.5 0.625 0.5 0.625 0.5 0.625 0.5 0.625 0.5 0.625 0.5 0.625 0.5 0.625 0.5 0.625 0.5 0.625 0.5 0.625 0.5 0.625 0.5 0.625 0.5 0.625 0.5 0.625 0.5 0.625 0.5 0.625 0.5 0.625 0.5 0.625 0.5 0.625 0.5 0.625 0.5 0.625 0.5 0.625 0.5 0.625 0.5 0.625 0.5 0.625 0.5 0.625 0.5 0.625 0.5 0.625 0.5 0.625 0.5 0.625 0.5 0.625 0.5 0.625 0.5 0.625 0.5 0.625 0.5 0.625 0.5 0.625 0.5 0.625 0.5 0.625 0.5 0.625 0.5 0.625 0.5 0.625 0.5 0.625 0.5 0.625 0.5 0.625 0.5 0.625 0.5 0.625 0.5 0.625 0.5 0.625 0.5 0.625 0.5 0.625 0.5 0.625 0.5 0.625 0.5 0.625 0.5 0.625 0.5 0.625 0.5 0.625 0.5 0.625 0.5 0.625 0.5 0.625 0.5 0.625 0.5 0.625 0.5 0.625 0.5 0.625 0.5 0.625 0.5 0.625 0.5 0.625 0.5 0.625 0.5 0.625 0.5 0.625 0.5 0.625 0.75 0.625 0.75 0.625 0.75 0.625 0.75 0.625 0.75 0.625 0.75 0.625 0.75 0.625 0.75 0.625 0.75 0.625 0.75 0.625 0.75 0.625 0.75 0.625 0.75 0.625 0.75 0.625 0.75 0.625 0.75 0.625 0.75 0.625 0.75 0.625 0.75 0.625 0.75 0.625 0.75 0.625 0.75 0.625 0.75 0.625 0.75 0.625 0.75 0.625 0.75 0.625 0.75 0.625 0.75 0.625 0.75 0.625 0.75 0.625 0.75 0.625 0.75 0.625 0.75 0.625 0.75 0.625 0.75 0.625 0.75 0.625 0.75 0.625 0.75 0.625 0.75 0.625 0.75 0.625 0.75 0.625 0.75 0.625 0.75 0.625 0.75 0.625 0.75 0.625 0.75 0.875 0.75 0.625 0.75 0.625 0.75 0.875 0.75 0.625 0.75 0.875 0.75 0.875 0.75 0.875 0.75 0.625 0.75 0.625 0.75 0.625 0.75 0.625 0.75 0.625 0.75 0.625 0.75 0.625 0.75 0.625 0.75 0.625 0.75 0.625 0.75 0.625 0.75 0.625 0.75 0.625 0.75 0.625 0.75 0.625 0.75 0 0 0 0 0 0 0 0 0 0 0 0 0 0 0 0 0 0 0 0 0 0 0 0 0 0 0.625 0.75 0 0 0 0 0 0 0 0 0 0 0 0 0 0 0 0 0 0 0 0 0 0 0 0 0 0 0 0 0 0 0 0 0 0 0 0 0 0 0.625 0.75 0.875 0.75 0.875 0.75 0 0 0 0 0 0 0.875 0.75 0.875 0.75 0.875 0.75 0.875 0.75 0.875 0.75 0.875 0.75 0.875 0.75 0.875 0.75 0.875 0.75 0 0 0 0 0 0 0 0 0 0 0 0 0 0 0 0 0 0 0 0 0 0 0 0 0 0 0 0 0 0 0 0 0 0 0 0 0.625 0.5 0.625 0.5 0.625 0.5 0.625 0.5 0.625 0.5 0.625 0.5 0.625 0.5 0.625 0.5 0.625 0.5 0.625 0.5 0.625 0.5 0.625 0.5 0.625 0.5 0.625 0.5 0.625 0.5 0.625 0.5 0.625 0.5 0.625 0.5 0.625 0.5 0.625 0.5 0.625 0.5 0.625 0.5 0.625 0.5 0.625 0.5 0.625 0.5 0.625 0.5 0.625 0.5 0.625 0.5 0.625 0.5 0.625 0.5 0.625 0.5 0.625 0.5 0.625 0.5 0.625 0.5 0.625 0.5 0.625 0.5 0.625 0.5 0.625 0.5 0.625 0.5 0.875 0.5 0.875 0.5 0.875 0.5 0.875 0.5 0.625 0.5 0.875 0.5 0.875 0.5 0.875 0.5 0.875 0.5 0.875 0.5 0.625 0.5 0.875 0.5 0.875 0.5 0.625 0.5 0.625 0.5 0.875 0.5 0.625 0.5 0.875 0.5 0 0 0 0 0 0 0.875 0.5 0.625 0.5 0.875 0.5 0.875 0.5 0.625 0.5 0.875 0.5 0.875 0.5 0.625 0.5 0.875 0.5 0.875 0.5 0.875 0.5 0.625 0.5 0.875 0.5 0.625 0.5 0.875 0.5 0.875 0.5 0.625 0.5 0.875 0.5 0.875 0.5 0.875 0.5 0.875 0.5 0.875 0.5 0 0 0.875 0.5 0.875 0.5 0.875 0.5 0.875 0.5 0.625 0.5 0.875 0.5 0.625 0.5 0.875 0.5 0.875 0.5 0.625 0.5 0.625 0.5 0.875 0.5 0.625 0.5 0.875 0.5 0.875 0.5 0.625 0.5 0 0 0 0 0 0 0 0 0 0 0.875 0.5 0 0 0 0 0 0 0 0 0.875 0.5 0 0 0 0 0.875 0.5 0 0 0.875 0.5 0 0 0.875 0.5 0.875 0.5 0.875 0.5 0 0 0 0 0 0 0 0 0 0 0 0 0 0 0 0 0 0 0 0 0 0 0 0 0 0 0 0 0 0 0 0 0 0 0 0 0 0 0 0 0 0 0 0 0 0 0 0 0 0 0.875 0.5 0 0 0 0 0 0 0 0 0 0 0 0 0 0 0.875 0.5 0.875 0.5 0 0 0.875 0.5 0 0 0 0 0 0 0 0 0 0 0 0 0 0 0 0 0 0 0 0 0 0 0 0 0.625 0.5 0.625 0.5 0.625 0.5 0.625 0.5 0.625 0.5 0.625 0.5 0.625 0.5 0 0 0.625 0.5 0 0 0 0 0.625 0.5 0.625 0.5 0 0 0.625 0.5 0.625 0.5 0.625 0.5 0.625 0.5 0.625 0.5 0.625 0.5 0.625 0.5 0.625 0.5 0 0 0.625 0.5 0.625 0.5 0.625 0.5 0.625 0.5 0.625 0.5 0.625 0.5 0.625 0.5 0 0 0 0 0 0 0 0 0 0 0 0 0 0 0 0 0 0 0 0 0 0 0 0 0.625 0.5 0.625 0.5 0.625 0.5 0.625 0.5 0.625 0.5 0.625 0.5 0 0 0 0 0 0 0 0 0 0 0 0 0 0 0 0 0 0 0 0 0 0 0 0 0 0 0 0 0 0 0 0 0 0 0 0 0 0 0 0 0 0 0 0 0 0 0 0 0 0 0 0 0 0 0 0 0 0 0.875 0.5 0 0 0 0 0 0 0 0 0 0 0 0 0 0 0 0 0 0 0 0 0 0 0 0 0 0 0 0 0 0 0.625 0.5 0.625 0.5 0.625 0.5 0.625 0.5 0.625 0.5 0.625 0.5 0.625 0.5 0.625 0.5 0.625 0.5 0 0 0 0 0 0 0.625 0.5 0.625 0.5 0.625 0.5 0.625 0.5 0.625 0.5 0.625 0.5 0.625 0.5 0.625 0.5 0.625 0.5 0 0 0 0 0 0 0.625 0.5 0.625 0.5 0.625 0.5 0.625 0.5 0 0 0.625 0.5 0.625 0.5 0.625 0.5 0.625 0.5 0.625 0.5 0.625 0.5 0.625 0.5 0.625 0.5 0.625 0.5 0.625 0.5 0.625 0.5 0 0 0.625 0.5 0.625 0.5 0.625 0.5 0.625 0.5 0 0 0 0 0 0 0.625 0.5 0.625 0.5 0.625 0.5 0 0 0 0 0 0 0.625 0.5 0.625 0.5 0.625 0.5 0.625 0.5 0.625 0.5 0.625 0.5 0.625 0.5 0.625 0.5 0.625 0.5 0.625 0.5 0 0 0.625 0.5 0.625 0.5 0.625 0.5 0.625 0.5 0.625 0.5 0.625 0.5 0.625 0.5 0 0 0.625 0.5 0.625 0.5 0.625 0.5 0.625 0.5 0.625 0.5 0 0 0 0 0 0 0.625 0.5 0.625 0.5 0.625 0.5 0.625 0.5 0.625 0.5 0.625 0.5 0.625 0.5 0 0 0.625 0.5 0.625 0.5 0.625 0.5 0.625 0.5 0.625 0.5 0.625 0.5 0.625 0.5 0.625 0.5 0.625 0.5 0.625 0.5 0.625 0.5 0.625 0.5 0.625 0.5 0.625 0.5 0.625 0.5 0.625 0.5 0.625 0.5 0.625 0.5 0.625 0.5 0.625 0.5 0.625 0.5 0.625 0.5 0 0 0 0 0 0 0.625 0.5 0 0 0 0 0.625 0.5 0.625 0.5 0.625 0.5 0.625 0.5 0.625 0.5 0.625 0.5 0 0 0 0 0 0 0 0 0 0 0.625 0.5 0 0 0.625 0.5 0 0 0.625 0.5 0.625 0.5 0.625 0.5 0 0 0 0 0 0 0.625 0.5 0.875 0.5 0.875 0.75 0.625 0.5 0.625 0.75 0.625 0.75 0.625 0.5 0.625 0.5 0.625 0.5 0.625 0.5 0.625 0.5 0.875 0.5 0.875 0.5 0.875 0.5 0.875 0.5 0.875 0.5 0.875 0.5 0.875 0.75 0.875 0.5 0.875 0.5 0.875 0.5 0.625 0.5 0.625 0.5 0.625 0.5 0.625 0.5 0.625 0.5 0.875 0.5 0.625 0.5 0.625 0.5 0.625 0.5 0.625 0.5 0.625 0.5 0.625 0.5 0.625 0.5 0.625 0.75 0.625 0.75 0.625 0.5 0.625 0.5 0.625 0.5 0.625 0.5 0.625 0.5 0.625 0.5 0.625 0.75 0.625 0.75 0.625 0.5 0.625 0.5 0.625 0.75 0.625 0.75 0.625 0.5 0.625 0.5 0.625 0.5 0.625 0.5 0.625 0.5 0.625 0.5 0.625 0.5 0.625 0.5 0.625 0.5 0.625 0.5 0.625 0.5 0.625 0.5 0.625 0.5 0.625 0.5 0.625 0.5 0.625 0.5 0.625 0.5 0.625 0.5 0.625 0.5 0.625 0.5 0.625 0.5 0.625 0.5 0.625 0.5 0.625 0.5 0.625 0.5 0.625 0.5 0.625 0.5 0.625 0.5 0.625 0.5 0.625 0.5 0.625 0.5 0.625 0.5 0.625 0.5 0.625 0.5 0.625 0.5 0.625 0.5 0.625 0.75 0.625 0.75 0.625 0.75 0.625 0.75 0.625 0.75 0.625 0.75 0.625 0.75 0.875 0.75 0.875 0.75 0.875 0.5 0.875 0.5 0.875 0.5 0.625 0.5 0.625 0.5 0.875 0.5 0.875 0.5 0.625 0.5 0.625 0.5 0.875 0.5 0.875 0.5 0.875 0.5 0.875 0.5 0.875 0.5 0.875 0.5 0.625 0.5 0.625 0.5 0.625 0.5 0.625 0.5 0.625 0.5 0.625 0.5 0.875 0.5 0.875 0.5 0.875 0.5 0.875 0.5 0.875 0.5 0.875 0.5 0.875 0.5 0.875 0.5 0.875 0.75 0.875 0.5 0.875 0.5 0.875 0.5 0.875 0.5 0.875 0.5 0.875 0.75 0.875 0.5 0.875 0.5 0.875 0.5 0.875 0.5 0.875 0.5 0.875 0.5 0.875 0.5 0.875 0.5 0.875 0.5 0.875 0.5 0.875 0.5 0.875 0.5 0.875 0.5 0.875 0.5 0.875 0.5 0.875 0.5 0.875 0.5 0.875 0.5 0.625 0.5 0.625 0.5 0.625 0.5 0.875 0.5 0.875 0.5 0.875 0.5 0.875 0.5 0.625 0.5 0.625 0.5 0.875 0.5 0.875 0.5 0.875 0.5 0.875 0.5 0.625 0.5 0.625 0.5 0.625 0.5 0.625 0.5 0.625 0.5 0.875 0.5 0.875 0.5 0.875 0.5 0.625 0.5 0.625 0.5 0.875 0.5 0.625 0.5 0.625 0.5 0.625 0.5 0.875 0.5 0.875 0.5 0.875 0.5 0.875 0.5 0.625 0.5 0.625 0.5 0.875 0.5 0.625 0.5 0.625 0.5 0.625 0.75 0.625 0.75 0.625 0.75 0.625 0.75 0.875 0.75 0.875 0.75 0.625 0.75 0.625 0.75 0.625 0.75 0.875 0.75 0.875 0.75 0.875 0.75 0.875 0.75 0.875 0.75 0.875 0.75 0.875 0.75 0.875 0.75 0.875 0.75 0.625 0.75 0.625 0.75 0.625 0.75 0.625 0.75 0.875 0.75 0.875 0.75 0.625 0.75 0.625 0.75 0.625 0.75 0.875 0.75 0.875 0.75 0.875 0.75 0.625 0.75 0.625 0.75 0.625 0.75 0.875 0.75 0.875 0.75 0.625 0.75 0.875 0.75 0.875 0.75 0.875 0.75 0.875 0.75 0.875 0.75 0.875 0.75 0.875 0.75 0.875 0.75 0.875 0.75 0.875 0.75 0.875 0.75 0.875 0.75 0.625 0.75 0.625 0.75 0.625 0.5 0.625 0.5 0.625 0.5 0.625 0.5 0.625 0.5 0.625 0.5 0.625 0.5 0.625 0.5 0.625 0.5 0.625 0.5 0.625 0.5 0.625 0.5 0.625 0.5 0.625 0.5 0.625 0.5 0.625 0.5 0.625 0.5 0.625 0.5 0.625 0.5 0.625 0.5 0.625 0.5 0.625 0.5 0.625 0.5 0.625 0.5 0.625 0.5 0.625 0.5 0.625 0.5 0.625 0.5 0.625 0.5 0.625 0.5 0.625 0.5 0.625 0.5 0.625 0.5 0.625 0.5 0.625 0.5 0.625 0.5 0.625 0.5 0.625 0.75 0.625 0.75 0.625 0.75 0.625 0.75 0.625 0.75 0.625 0.75 0.625 0.75 0.625 0.75 0.625 0.75 0.625 0.75 0.625 0.75 0.625 0.75 0.625 0.75 0.625 0.75 0.625 0.75 0.625 0.75 0.625 0.75 0.625 0.5 0.625 0.5 0.625 0.5 0.625 0.5 0.625 0.5 0.625 0.5 0.625 0.5 0.625 0.5 0.625 0.5 0.625 0.5 0.625 0.5 0.625 0.5 0.625 0.5 0.625 0.5 0.625 0.5 0.625 0.5 0.625 0.5 0.625 0.5 0.625 0.5 0.625 0.5 0.625 0.5 0.625 0.5 0.625 0.5 0.625 0.5 0.625 0.5 0.625 0.5 0.625 0.5 0.625 0.5 0.625 0.5 0.625 0.5 0.625 0.5 0.625 0.5 0.625 0.5 0.625 0.5 0.625 0.5 0.625 0.5 0.625 0.5 0.625 0.5 0.625 0.5 0.625 0.5 0.625 0.5 0.625 0.5 0.625 0.5 0.625 0.5 0.625 0.5 0.625 0.5 0.625 0.5 0.625 0.5 0.625 0.5 0.625 0.5 0.625 0.5 0.625 0.5 0.625 0.5 0.625 0.5 0.625 0.5 0.625 0.5 0.625 0.5 0.625 0.5 0.625 0.5 0.625 0.5 0.625 0.5 0.625 0.75 0.625 0.75 0.625 0.75 0.625 0.75 0.625 0.5 0.625 0.5 0.625 0.5 0.625 0.5 0.625 0.5 0.625 0.5 0.625 0.5 0.625 0.5 0.625 0.5 0.625 0.5 0.625 0.5 0.625 0.5 0.625 0.5 0.625 0.5 0.625 0.5 0.625 0.5 0.625 0.5 0.625 0.5 0.625 0.5 0.625 0.5 0.625 0.5 0.625 0.5 0.625 0.5 0.625 0.5 0.625 0.5 0.625 0.5 0.625 0.5 0.625 0.5 0.625 0.5 0.625 0.5 0.625 0.5 0.625 0.5 0.625 0.5 0.625 0.5 0.625 0.5 0.625 0.5 0.625 0.5 0.625 0.5 0.625 0.5 0.625 0.5 0.625 0.5 0.625 0.5 0.625 0.5 0.625 0.5 0.625 0.5 0.625 0.5 0.625 0.5 0.625 0.5 0.625 0.5 0.625 0.5 0.625 0.75 0.625 0.75 0.625 0.75 0.625 0.5 0.625 0.5 0.625 0.5 0.625 0.5 0.625 0.5 0.625 0.5 0.625 0.75 0.625 0.75 0.625 0.75 0.625 0.5 0.625 0.5 0.625 0.5 0.625 0.5 0.625 0.5 0.625 0.5 0.625 0.5 0.625 0.5 0.625 0.5 0.625 0.5 0.625 0.5 0.625 0.5 0.625 0.5 0.625 0.5 0.625 0.5 0.625 0.5 0.625 0.5 0.625 0.5 0.625 0.75 0.625 0.75 0.625 0.75 0.625 0.5 0.625 0.5 0.625 0.5 0.625 0.5 0.625 0.5 0.625 0.5 0.625 0.5 0.625 0.5 0.625 0.5 0.625 0.5 0.625 0.5 0.625 0.5 0.625 0.5 0.625 0.5 0.625 0.5 0.625 0.5 0.625 0.5 0.625 0.5 0.625 0.5 0.625 0.5 0.625 0.5 0.875 0.5 0.875 0.5 0.875 0.5 0.625 0.5 0.625 0.5 0.875 0.5 0.875 0.5 0.625 0.5 0.625 0.5 0.625 0.5 0.625 0.5 0.625 0.5 0.875 0.5 0.875 0.5 0.875 0.5 0.875 0.5 0.625 0.5 0.625 0.5 0.625 0.5 0.625 0.5 0.875 0.5 0.625 0.5 0.625 0.5 0.625 0.5 0.625 0.5 0.625 0.5 0.625 0.5 0.625 0.5 0.625 0.5 0.625 0.5 0.875 0.5 0.875 0.5 0.875 0.5 0.875 0.5 0.875 0.5 0.875 0.5 0.875 0.5 0.875 0.5 0.875 0.5 0.875 0.5 0.875 0.5 0.875 0.5 0.625 0.5 0.625 0.5 0.625 0.5 0.625 0.5 0.625 0.5 0.625 0.5 0.625 0.5 0.625 0.5 0.625 0.5 0.625 0.5 0.625 0.5 0.625 0.5 0.625 0.5 0.625 0.5 0.625 0.5 0.625 0.5 0.625 0.5 0.625 0.5 0.625 0.5 0.625 0.5 0.625 0.5 0.625 0.5 0.625 0.5 0.625 0.5 0.625 0.5 0.625 0.5 0.625 0.5 0.625 0.5 0.625 0.5 0.625 0.5 0.625 0.5 0.625 0.5 0.625 0.5 0.625 0.5 0.625 0.5 0.625 0.5 0.625 0.5 0.625 0.5 0.875 0.5 0.625 0.5 0.625 0.5 0.875 0.5 0.875 0.5 0.875 0.5 0.875 0.5 0.875 0.5 0.875 0.5 0.875 0.5 0.625 0.5 0.625 0.5 0.625 0.5 0.625 0.5 0.625 0.5 0.625 0.5 0.625 0.5 0.625 0.5 0.625 0.5 0.625 0.5 0.625 0.5 0.625 0.5 0.625 0.5 0.625 0.5 0.625 0.5 0.625 0.5 0.625 0.5 0.625 0.5 0.875 0.5 0.875 0.5 0.875 0.5 0.625 0.5 0.625 0.5 0.875 0.5 0.875 0.5 0.875 0.5 0.875 0.5 0.625 0.5 0.625 0.5 0.875 0.5 0.875 0.5 0.875 0.5 0.875 0.5 0.625 0.5 0.625 0.5 0.625 0.5 0.875 0.5 0.625 0.5 0.625 0.5 0.625 0.5 0.625 0.5 0.875 0.5 0.625 0.5 0.625 0.5 0.625 0.5 0.875 0.5 0.875 0.5 0.875 0.5 0.625 0.5 0.625 0.5 0.625 0.5 0.625 0.5 0.625 0.5 0.875 0.5 0.875 0.5 0.875 0.5 0.875 0.5 0.875 0.5 0.875 0.5 0.875 0.5 0.625 0.5 0.625 0.5 0.875 0.5 0.625 0.5 0.625 0.5 0.625 0.5 0.875 0.5 0.875 0.5 0.875 0.5 0.625 0.5 0.625 0.5 0.875 0.5 0.625 0.5 0.625 0.5 0.625 0.5 0.875 0.5 0.875 0.5 0.875 0.5 0.625 0.5 0.625 0.5 0.875 0.5 0.625 0.5 0.625 0.5 0.625 0.5 0.875 0.5 0.875 0.5 0.875 0.5 0.625 0.5 0.625 0.5 0.875 0.5 0.625 0.5 0.625 0.5 0.625 0.5 0.875 0.5 0.875 0.5 0.875 0.5 0.625 0.5 0.625 0.5 0.875 0.5 0.625 0.5 0.625 0.5 0.875 0.5 0.875 0.5 0.875 0.5 0.875 0.5 0.625 0.5 0.625 0.5 0.875 0.5 0.875 0.5 0.875 0.5 0.875 0.5 0.625 0.5 0.625 0.5 0.875 0.5 0.625 0.5 0.625 0.5 0.625 0.5 0.875 0.5 0.875 0.5 0.875 0.5 0.625 0.5 0.625 0.5 0.875 0.5 0.625 0.5 0.625 0.5 0.625 0.5 0.625 0.5 0.625 0.5 0.625 0.5 0.875 0.5 0.875 0.5 0.875 0.5 0.875 0.5 0.875 0.5 0.875 0.5 0.625 0.5 0.625 0.5 0.625 0.5 0.625 0.5 0.625 0.5 0.625 0.5 0.625 0.5 0.625 0.5 0.625 0.5 0.625 0.5 0.625 0.5 0.625 0.5 0.625 0.5 0.625 0.5 0.625 0.5 0.625 0.5 0.625 0.5 0.625 0.5 0.625 0.5 0.625 0.5 0.625 0.5 0.625 0.5 0.625 0.5 0.625 0.5 0.625 0.5 0.625 0.5 0.625 0.5 0.625 0.5 0.625 0.5 0.625 0.5 0.625 0.5 0.625 0.5 0.625 0.5 0.625 0.5 0.625 0.5 0.625 0.5 0.625 0.5 0.625 0.5 0.625 0.5 0.625 0.5 0.625 0.5 0.625 0.5 0.625 0.5 0.625 0.5 0.625 0.5 0.625 0.5 0.625 0.5 0.625 0.5 0.625 0.5 0.625 0.5 0.625 0.5 0.625 0.5 0.625 0.5 0.625 0.5 0.625 0.5 0.625 0.5 0.625 0.5 0.625 0.5 0.625 0.5 0.625 0.5 0.625 0.5 0.625 0.5 0.625 0.5 0.625 0.5 0.625 0.5 0.625 0.5 0.625 0.5 0.625 0.5 0.625 0.5 0.625 0.75 0.625 0.75 0.625 0.75 0.625 0.75 0.625 0.75 0.625 0.75 0.625 0.75 0.625 0.75 0.625 0.75 0.625 0.75 0.625 0.75 0.625 0.75 0.625 0.75 0.625 0.75 0.625 0.75 0.625 0.75 0.625 0.75 0.625 0.75 0.625 0.75 0.625 0.75 0.625 0.75 0.625 0.75 0.625 0.75 0.625 0.75 0.625 0.75 0.625 0.75 0.625 0.75 0.625 0.75 0.625 0.75 0.625 0.75 0.625 0.75 0.625 0.75 0.625 0.75 0.625 0.75 0.625 0.75 0.625 0.75 0.625 0.75 0.625 0.75 0.625 0.75 0.625 0.75 0.625 0.75 0.625 0.75 0.625 0.75 0.625 0.75 0.625 0.75 0.625 0.75 0.625 0.75 0.625 0.75 0.625 0.75 0.625 0.75 0.625 0.75 0 0 0 0 0 0 0 0 0 0 0 0 0 0 0 0 0 0 0 0 0 0 0 0 0 0 0 0 0 0 0.875 0.75 0.875 0.75 0.875 0.75 0.875 0.75 0.875 0.75 0.875 0.75 0.875 0.75 0.875 0.75 0.875 0.75 0 0 0 0 0 0 0 0 0 0 0 0 0 0 0 0 0 0 0 0 0 0 0 0 0.625 0.5 0.625 0.5 0.625 0.5 0.625 0.5 0.625 0.5 0.625 0.5 0.625 0.5 0.625 0.5 0.625 0.5 0.625 0.5 0.625 0.5 0.625 0.5 0.625 0.5 0.625 0.5 0.625 0.5 0.625 0.5 0.625 0.5 0.625 0.5 0.625 0.5 0.625 0.5 0.625 0.5 0.625 0.5 0.625 0.5 0.625 0.5 0.625 0.5 0.625 0.5 0.625 0.5 0.875 0.5 0.625 0.5 0.625 0.5 0.875 0.5 0.875 0.5 0.875 0.5 0.875 0.5 0.625 0.5 0.625 0.5 0.875 0.5 0.625 0.5 0.625 0.5 0.875 0.5 0.625 0.5 0.625 0.5 0 0 0 0 0 0 0.875 0.5 0.625 0.5 0.625 0.5 0.875 0.5 0.625 0.5 0.625 0.5 0.875 0.5 0.625 0.5 0.625 0.5 0.875 0.5 0.625 0.5 0.625 0.5 0.875 0.5 0.625 0.5 0.625 0.5 0.875 0.5 0.875 0.5 0.875 0.5 0.875 0.5 0.875 0.5 0 0 0 0 0 0 0 0 0 0 0 0 0 0 0.875 0.5 0.875 0.5 0 0 0.875 0.5 0 0 0.875 0.5 0 0 0 0 0 0 0 0 0 0 0 0 0.875 0.5 0 0 0 0 0 0 0 0 0 0 0 0 0 0 0 0 0 0 0 0 0 0 0.625 0.5 0.625 0.5 0.625 0.5 0.625 0.5 0.625 0.5 0.625 0.5 0.625 0.5 0 0 0 0 0.625 0.5 0.625 0.5 0.625 0.5 0.625 0.5 0.625 0.5 0.625 0.5 0 0 0 0 0 0 0 0 0 0 0 0 0 0 0 0 0 0 0 0 0 0 0 0 0.625 0.5 0.625 0.5 0.625 0.5 0.625 0.5 0.625 0.5 0.625 0.5 0 0 0 0 0 0 0 0 0 0 0 0 0 0 0 0 0 0 0 0 0 0 0 0 0 0 0 0 0 0 0 0 0 0 0 0 0 0 0 0 0 0 0 0 0 0 0 0 0 0 0 0 0 0 0 0 0 0 0 0 0 0 0 0 0 0 0 0 0 0 0 0 0.625 0.5 0.625 0.5 0.625 0.5 0.625 0.5 0.625 0.5 0.625 0.5 0 0 0 0 0 0 0.625 0.5 0.625 0.5 0.625 0.5 0.625 0.5 0.625 0.5 0.625 0.5 0.625 0.5 0.625 0.5 0.625 0.5 0 0 0 0 0 0 0.625 0.5 0.625 0.5 0.625 0.5 0.625 0.5 0 0 0 0 0.625 0.5 0.625 0.5 0.625 0.5 0.625 0.5 0.625 0.5 0.625 0.5 0.625 0.5 0.625 0.5 0.625 0.5 0.625 0.5 0 0 0 0 0.625 0.5 0.625 0.5 0.625 0.5 0 0 0 0 0 0 0.625 0.5 0.625 0.5 0.625 0.5 0 0 0 0 0 0 0.625 0.5 0.625 0.5 0.625 0.5 0.625 0.5 0.625 0.5 0.625 0.5 0.625 0.5 0.625 0.5 0.625 0.5 0.625 0.5 0 0 0 0 0.625 0.5 0.625 0.5 0.625 0.5 0.625 0.5 0.625 0.5 0.625 0.5 0 0 0.625 0.5 0.625 0.5 0.625 0.5 0.625 0.5 0.625 0.5 0 0 0 0 0 0 0.625 0.5 0.625 0.5 0.625 0.5 0.625 0.5 0.625 0.5 0.625 0.5 0.625 0.5 0 0 0 0 0.625 0.5 0 0 0.625 0.5 0.625 0.5 0.625 0.5 0.625 0.5 0.625 0.5 0.625 0.5 0.625 0.5 0.625 0.5 0.625 0.5 0.625 0.5 0.625 0.5 0.625 0.5 0.625 0.5 0.625 0.5 0.625 0.5 0.625 0.5 0.625 0.5 0.625 0.5 0.625 0.5 0 0 0 0 0 0 0.625 0.5 0.625 0.5 0.625 0.5 0 0 0 0 0 0</float_array>
          <technique_common>
            <accessor source="#Cube_003-mesh-map-0-array" count="2565" stride="2">
              <param name="S" type="float"/>
              <param name="T" type="float"/>
            </accessor>
          </technique_common>
        </source>
        <vertices id="Cube_003-mesh-vertices">
          <input semantic="POSITION" source="#Cube_003-mesh-positions"/>
        </vertices>
        <triangles count="855">
          <input semantic="VERTEX" source="#Cube_003-mesh-vertices" offset="0"/>
          <input semantic="NORMAL" source="#Cube_003-mesh-normals" offset="1"/>
          <input semantic="TEXCOORD" source="#Cube_003-mesh-map-0" offset="2" set="0"/>
          <p>3 0 0 0 1 1 2 2 2 3 0 3 4 3 4 5 4 5 5 4 6 7 5 7 3 0 8 3 0 9 6 6 10 1 7 11 6 6 12 10 8 13 1 7 14 1 7 15 9 9 16 0 1 17 6 6 18 15 10 19 11 11 20 7 5 21 14 12 22 13 13 23 7 5 24 12 14 25 6 6 26 8 15 27 19 16 28 14 12 29 8 15 30 17 17 31 18 18 32 5 4 33 16 19 34 17 17 35 17 17 36 21 20 37 18 18 38 18 18 39 25 21 40 19 16 41 22 22 42 27 23 43 23 24 44 17 17 45 22 22 46 23 24 47 24 25 48 29 26 49 25 21 50 21 20 51 30 27 52 31 28 53 31 28 54 32 29 55 21 20 56 21 20 57 24 25 58 18 18 59 32 29 60 28 30 61 24 25 62 33 31 63 34 32 64 32 29 65 30 27 66 36 33 67 37 34 68 20 35 69 23 24 70 36 33 71 36 33 72 27 23 73 34 32 74 37 34 75 34 32 76 35 36 77 19 16 78 40 37 79 14 12 80 14 12 81 42 38 82 13 13 83 4 3 84 22 22 85 16 19 86 2 2 87 43 39 88 4 3 89 0 1 90 9 9 91 39 40 92 2 2 93 39 40 94 41 41 95 12 14 96 46 42 97 15 10 98 13 13 99 47 43 100 12 14 101 47 43 102 50 44 103 49 45 104 49 45 105 52 46 106 47 43 107 47 43 108 45 47 109 12 14 110 50 44 111 54 48 112 55 49 113 48 50 114 42 38 115 54 48 116 11 11 117 58 51 118 57 52 119 11 11 120 56 53 121 10 8 122 10 8 123 51 54 124 9 9 125 58 51 126 61 55 127 57 52 128 56 53 129 59 56 130 51 54 131 57 52 132 60 57 133 56 53 134 62 58 135 64 59 136 65 60 137 15 10 138 64 59 139 58 51 140 46 42 141 44 61 142 15 10 143 65 60 144 68 62 145 69 63 146 63 64 147 66 65 148 44 61 149 44 61 150 68 62 151 64 59 152 63 64 153 67 66 154 66 65 155 63 64 156 46 42 157 67 66 158 46 42 159 45 47 160 67 66 161 45 47 162 52 46 163 67 66 164 52 46 165 53 67 166 67 66 167 55 49 168 71 68 169 50 44 170 53 67 171 70 69 172 72 70 173 49 45 174 71 68 175 70 69 176 71 68 177 73 71 178 75 72 179 72 70 180 74 73 181 76 74 182 70 69 183 75 72 184 74 73 185 75 72 186 81 75 187 79 76 188 76 74 189 78 77 190 80 78 191 75 72 192 78 77 193 74 73 194 81 75 195 83 79 196 79 76 197 80 78 198 82 80 199 84 81 200 78 77 201 83 79 202 82 80 203 198 82 204 89 83 205 200 84 206 142 85 207 201 86 208 88 87 209 82 80 210 87 88 211 86 89 212 22 22 213 93 90 214 26 91 215 41 41 216 91 92 217 92 93 218 43 39 219 92 93 220 93 90 221 39 40 222 94 94 223 91 92 224 39 40 225 9 9 226 90 95 227 90 95 228 9 9 229 95 96 230 59 56 231 96 97 232 51 54 233 9 9 234 96 97 235 95 96 236 93 90 237 98 98 238 26 91 239 92 93 240 99 99 241 100 100 242 93 90 243 100 100 244 101 101 245 91 92 246 94 94 247 99 99 248 99 99 249 102 102 250 103 103 251 100 100 252 105 104 253 101 101 254 99 99 255 104 105 256 100 100 257 102 102 258 90 95 259 106 106 260 90 95 261 107 107 262 106 106 263 95 96 264 108 108 265 107 107 266 108 108 267 97 109 268 109 110 269 26 91 270 117 111 271 27 23 272 30 27 273 110 112 274 31 28 275 33 31 276 110 112 277 111 113 278 35 36 279 111 113 280 112 114 281 30 27 282 113 115 283 38 116 284 37 34 285 116 117 286 113 115 287 34 32 288 114 118 289 28 30 290 120 119 291 117 111 292 122 120 293 34 32 294 117 111 295 119 121 296 29 26 297 114 118 298 118 122 299 112 114 300 120 119 301 35 36 302 116 117 303 120 119 304 122 120 305 114 118 306 120 119 307 121 123 308 98 98 309 115 124 310 26 91 311 98 98 312 125 125 313 123 126 314 101 101 315 105 104 316 125 125 317 123 126 318 124 127 319 98 98 320 127 128 321 129 129 322 124 127 323 124 127 324 126 130 325 115 124 326 115 124 327 122 120 328 117 111 329 114 118 330 131 131 331 118 122 332 118 122 333 128 132 334 29 26 335 128 132 336 121 123 337 112 114 338 29 26 339 134 133 340 133 134 341 29 26 342 133 134 343 25 21 344 128 132 345 135 135 346 136 136 347 111 113 348 135 135 349 112 114 350 128 132 351 136 136 352 134 133 353 110 112 354 132 137 355 111 113 356 137 138 357 138 139 358 132 137 359 132 137 360 136 136 361 135 135 362 149 140 363 156 141 364 140 142 365 141 143 366 156 141 367 159 144 368 136 136 369 140 142 370 141 143 371 134 133 372 141 143 373 161 145 374 138 139 375 149 140 376 140 142 377 25 21 378 145 146 379 40 37 380 40 37 381 145 146 382 144 147 383 40 37 384 144 147 385 42 38 386 137 138 387 147 148 388 148 149 389 38 116 390 147 148 391 110 112 392 122 120 393 151 150 394 116 117 395 113 115 396 151 150 397 150 151 398 38 116 399 150 151 400 146 152 401 130 153 402 152 154 403 129 129 404 152 154 405 126 130 406 129 129 407 151 150 408 155 155 409 150 151 410 146 152 411 155 155 412 154 156 413 152 154 414 158 157 415 155 155 416 154 156 417 158 157 418 157 158 419 146 152 420 157 158 421 147 148 422 137 138 423 148 149 424 139 159 425 161 145 426 133 134 427 134 133 428 161 145 429 141 143 430 162 160 431 141 143 432 159 144 433 162 160 434 145 146 435 161 145 436 163 161 437 145 146 438 163 161 439 144 147 440 42 38 441 165 162 442 54 48 443 164 163 444 144 147 445 167 164 446 85 165 447 299 166 448 206 167 449 73 71 450 168 168 451 169 169 452 54 48 453 168 168 454 55 49 455 73 71 456 169 169 457 81 75 458 168 168 459 166 170 460 169 169 461 165 162 462 167 164 463 166 170 464 163 161 465 167 164 466 144 147 467 166 170 468 163 161 469 77 171 470 149 140 471 139 159 472 148 149 473 160 172 474 149 140 475 148 149 476 153 173 477 174 174 478 158 157 479 157 158 480 174 174 481 173 175 482 153 173 483 171 176 484 172 177 485 172 177 486 178 178 487 174 174 488 173 175 489 178 178 490 177 179 491 172 177 492 175 180 493 176 181 494 159 144 495 179 182 496 180 183 497 160 172 498 179 182 499 156 141 500 180 183 501 182 184 502 183 185 503 181 186 504 182 184 505 179 182 506 176 181 507 188 187 508 178 178 509 178 178 510 187 188 511 177 179 512 176 181 513 185 189 514 186 190 515 184 191 516 188 187 517 182 184 518 182 184 519 186 190 520 183 185 521 187 188 522 189 192 523 190 193 524 181 186 525 189 192 526 184 191 527 148 149 528 181 186 529 160 172 530 148 149 531 147 148 532 189 192 533 190 193 534 189 192 535 147 148 536 187 188 537 190 193 538 177 179 539 173 175 540 177 179 541 190 193 542 157 158 543 190 193 544 147 148 545 183 185 546 185 189 547 193 194 548 183 185 549 192 195 550 180 183 551 159 144 552 180 183 553 213 196 554 159 144 555 191 197 556 162 160 557 200 84 558 203 198 559 204 199 560 142 85 561 89 83 562 143 200 563 86 89 564 195 201 565 194 202 566 195 201 567 199 203 568 142 85 569 196 204 570 143 200 571 198 82 572 194 202 573 142 85 574 143 200 575 88 87 576 203 198 577 89 83 578 88 87 579 205 205 580 202 206 581 195 201 582 87 88 583 197 207 584 194 202 585 196 204 586 86 89 587 85 165 588 87 88 589 83 79 590 84 81 591 82 80 592 86 89 593 86 89 594 196 204 595 84 81 596 87 88 597 206 167 598 197 207 599 239 208 600 244 209 601 233 210 602 72 70 603 67 66 604 53 67 605 72 70 606 209 211 607 170 212 608 84 81 609 208 213 610 80 78 611 208 213 612 76 74 613 80 78 614 84 81 615 196 204 616 210 214 617 180 183 618 211 215 619 214 216 620 180 183 621 192 195 622 211 215 623 212 217 624 191 197 625 213 196 626 191 197 627 159 144 628 213 196 629 180 183 630 214 216 631 213 196 632 211 215 633 218 218 634 214 216 635 214 216 636 217 219 637 213 196 638 212 217 639 217 219 640 216 220 641 218 218 642 219 221 643 222 222 644 217 219 645 222 222 646 221 223 647 217 219 648 220 224 649 216 220 650 222 222 651 223 225 652 226 226 653 221 223 654 226 226 655 225 227 656 221 223 657 224 228 658 220 224 659 226 226 660 227 229 661 230 230 662 225 227 663 230 230 664 229 231 665 224 228 666 229 231 667 228 232 668 202 206 669 232 233 670 203 198 671 231 234 672 234 235 673 232 233 674 198 82 675 143 200 676 89 83 677 234 235 678 236 236 679 232 233 680 232 233 681 204 199 682 203 198 683 233 210 684 238 237 685 239 208 686 202 206 687 238 237 688 231 234 689 142 85 690 199 203 691 201 86 692 238 237 693 205 205 694 240 238 695 239 208 696 238 237 697 240 238 698 201 86 699 240 238 700 205 205 701 244 209 702 249 239 703 247 240 704 240 238 705 199 203 706 235 241 707 197 207 708 235 241 709 199 203 710 206 167 711 242 242 712 197 207 713 85 165 714 81 75 715 77 171 716 234 235 717 245 243 718 237 244 719 233 210 720 243 245 721 234 235 722 243 245 723 248 246 724 245 243 725 244 209 726 241 247 727 243 245 728 259 248 729 254 249 730 256 250 731 260 251 732 257 252 733 255 253 734 254 249 735 252 254 736 253 255 737 260 251 738 254 249 739 261 256 740 255 253 741 250 257 742 252 254 743 256 250 744 253 255 745 251 258 746 247 240 747 258 259 748 260 251 749 247 240 750 261 256 751 241 247 752 248 246 753 261 256 754 259 248 755 251 258 756 265 260 757 263 261 758 252 254 759 265 260 760 253 255 761 252 254 762 262 262 763 264 263 764 263 261 765 269 264 766 267 265 767 264 263 768 269 264 769 265 260 770 264 263 771 266 266 772 268 267 773 267 265 774 273 268 775 271 269 776 268 267 777 273 268 778 269 264 779 268 267 780 270 270 781 272 271 782 271 269 783 277 272 784 275 273 785 272 271 786 277 272 787 273 268 788 272 271 789 274 274 790 276 275 791 275 273 792 281 276 793 279 277 794 276 275 795 281 276 796 277 272 797 283 278 798 245 243 799 248 246 800 279 277 801 284 279 802 282 280 803 280 281 804 284 279 805 281 276 806 237 244 807 245 243 808 280 281 809 282 280 810 288 282 811 286 283 812 283 278 813 288 282 814 284 279 815 283 278 816 259 248 817 287 284 818 286 283 819 291 285 820 289 286 821 287 284 822 291 285 823 288 282 824 287 284 825 256 250 826 290 287 827 280 281 828 274 274 829 237 244 830 237 244 831 278 288 832 236 236 833 274 274 834 285 289 835 278 288 836 166 170 837 81 75 838 169 169 839 239 208 840 240 238 841 246 290 842 246 290 843 240 238 844 249 239 845 235 241 846 249 239 847 240 238 848 163 161 849 293 291 850 295 292 851 77 171 852 295 292 853 292 293 854 162 160 855 296 294 856 294 295 857 162 160 858 293 291 859 161 145 860 85 165 861 292 293 862 298 296 863 207 297 864 299 166 865 300 298 866 191 197 867 301 299 868 296 294 869 192 195 870 302 300 871 211 215 872 297 301 873 301 299 874 302 300 875 192 195 876 303 302 877 297 301 878 292 293 879 307 303 880 304 304 881 299 166 882 310 305 883 311 306 884 294 295 885 305 307 886 293 291 887 300 298 888 311 306 889 312 308 890 293 291 891 307 303 892 295 292 893 292 293 894 310 305 895 298 296 896 309 309 897 303 302 898 314 310 899 294 295 900 308 311 901 306 312 902 296 294 903 309 309 904 308 311 905 193 194 906 313 313 907 192 195 908 193 194 909 315 314 910 316 315 911 185 189 912 317 316 913 315 314 914 175 180 915 318 317 916 317 316 917 171 176 918 319 318 919 318 317 920 130 153 921 127 128 922 319 318 923 127 128 924 321 319 925 319 318 926 320 320 927 123 126 928 125 125 929 320 320 930 322 321 931 323 322 932 320 320 933 323 322 934 321 319 935 322 321 936 105 104 937 325 323 938 325 323 939 324 324 940 322 321 941 323 322 942 324 324 943 326 325 944 327 326 945 330 327 946 331 328 947 325 323 948 329 329 949 330 327 950 104 105 951 329 329 952 105 104 953 328 330 954 103 103 955 333 331 956 103 103 957 102 102 958 333 331 959 333 331 960 332 332 961 334 333 962 102 102 963 106 106 964 332 332 965 328 330 966 334 333 967 335 334 968 335 334 969 329 329 970 328 330 971 330 327 972 336 335 973 331 328 974 323 322 975 326 325 976 321 319 977 327 326 978 326 325 979 324 324 980 319 318 981 337 336 982 318 317 983 338 337 984 321 319 985 326 325 986 338 337 987 337 336 988 321 319 989 339 338 990 326 325 991 331 328 992 331 328 993 336 335 994 339 338 995 340 339 996 335 334 997 334 333 998 336 335 999 341 340 1000 339 338 1001 336 335 1002 340 339 1003 341 340 1004 340 339 1005 336 335 1006 335 334 1007 334 333 1008 342 341 1009 340 339 1010 332 332 1011 343 342 1012 342 341 1013 333 331 1014 102 102 1015 332 332 1016 318 317 1017 344 343 1018 317 316 1019 109 110 1020 346 344 1021 108 108 1022 106 106 1023 345 345 1024 343 342 1025 107 107 1026 346 344 1027 345 345 1028 317 316 1029 348 346 1030 315 314 1031 317 316 1032 344 343 1033 348 346 1034 337 336 1035 350 347 1036 344 343 1037 349 348 1038 338 337 1039 352 349 1040 338 337 1041 354 350 1042 352 349 1043 339 338 1044 351 351 1045 354 350 1046 314 310 1047 353 352 1048 356 353 1049 303 302 1050 355 354 1051 353 352 1052 355 354 1053 357 355 1054 353 352 1055 356 353 1056 357 355 1057 359 356 1058 358 357 1059 360 358 1060 357 355 1061 359 356 1062 360 358 1063 362 359 1064 361 360 1065 207 297 1066 360 358 1067 360 358 1068 300 298 1069 362 359 1070 242 242 1071 361 360 1072 235 241 1073 258 259 1074 235 241 1075 361 360 1076 257 252 1077 258 259 1078 361 360 1079 361 360 1080 358 357 1081 257 252 1082 290 287 1083 251 258 1084 365 361 1085 289 286 1086 291 285 1087 366 362 1088 291 285 1089 365 361 1090 366 362 1091 289 286 1092 368 363 1093 363 364 1094 366 362 1095 367 365 1096 368 363 1097 263 261 1098 365 361 1099 251 258 1100 368 363 1101 369 366 1102 370 367 1103 363 364 1104 370 367 1105 364 368 1106 267 265 1107 367 365 1108 263 261 1109 370 367 1110 371 369 1111 372 370 1112 271 269 1113 369 366 1114 267 265 1115 271 269 1116 275 273 1117 371 369 1118 372 370 1119 373 371 1120 374 372 1121 374 372 1122 375 373 1123 376 374 1124 372 370 1125 378 375 1126 377 376 1127 372 370 1128 364 368 1129 370 367 1130 374 372 1131 376 374 1132 378 375 1133 371 369 1134 275 273 1135 373 371 1136 275 273 1137 279 277 1138 373 371 1139 373 371 1140 279 277 1141 375 373 1142 279 277 1143 282 280 1144 375 373 1145 379 377 1146 282 280 1147 286 283 1148 375 373 1149 379 377 1150 376 374 1151 379 377 1152 289 286 1153 380 378 1154 289 286 1155 363 364 1156 380 378 1157 380 378 1158 363 364 1159 379 377 1160 378 375 1161 364 368 1162 377 376 1163 363 364 1164 376 374 1165 379 377 1166 236 236 1167 381 379 1168 204 199 1169 204 199 1170 382 380 1171 200 84 1172 200 84 1173 383 381 1174 198 82 1175 383 381 1176 196 204 1177 198 82 1178 204 199 1179 381 379 1180 382 380 1181 200 84 1182 382 380 1183 383 381 1184 382 380 1185 386 382 1186 383 381 1187 382 380 1188 381 379 1189 385 383 1190 285 289 1191 381 379 1192 278 288 1193 383 381 1194 387 384 1195 210 214 1196 210 214 1197 387 384 1198 208 213 1199 208 213 1200 387 384 1201 209 211 1202 209 211 1203 388 385 1204 170 212 1205 382 380 1206 385 383 1207 386 382 1208 362 359 1209 312 308 1210 389 386 1211 381 379 1212 384 387 1213 385 383 1214 314 310 1215 359 356 1216 309 309 1217 308 311 1218 309 309 1219 359 356 1220 359 356 1221 389 386 1222 308 311 1223 362 359 1224 389 386 1225 359 356 1226 308 311 1227 389 386 1228 306 312 1229 307 303 1230 305 307 1231 412 388 1232 307 303 1233 411 389 1234 304 304 1235 306 312 1236 417 390 1237 413 391 1238 358 357 1239 390 392 1240 257 252 1241 358 357 1242 392 393 1243 393 394 1244 394 395 1245 355 354 1246 313 313 1247 395 396 1248 313 313 1249 316 315 1250 395 396 1251 315 314 1252 396 397 1253 396 397 1254 348 346 1255 397 398 1256 250 257 1257 400 399 1258 262 262 1259 250 257 1260 399 400 1261 398 401 1262 262 262 1263 401 402 1264 266 266 1265 266 266 1266 402 403 1267 270 270 1268 270 270 1269 403 404 1270 285 289 1271 384 387 1272 403 404 1273 404 405 1274 385 383 1275 404 405 1276 405 406 1277 386 382 1278 405 406 1279 406 407 1280 387 384 1281 406 407 1282 407 408 1283 387 384 1284 407 408 1285 388 385 1286 170 212 1287 408 409 1288 67 66 1289 67 66 1290 408 409 1291 66 65 1292 68 62 1293 408 409 1294 409 410 1295 409 410 1296 388 385 1297 407 408 1298 69 63 1299 409 410 1300 410 411 1301 409 410 1302 407 408 1303 410 411 1304 393 412 1305 257 412 1306 358 412 1307 312 308 1308 311 306 1309 416 413 1310 311 306 1311 415 414 1312 416 413 1313 305 307 1314 413 391 1315 412 388 1316 312 308 1317 417 390 1318 389 386 1319 310 305 1320 411 389 1321 415 414 1322 412 388 1323 414 415 1324 411 389 1325 411 389 1326 420 416 1327 415 414 1328 417 390 1329 421 417 1330 422 418 1331 413 391 1332 418 419 1333 412 388 1334 413 391 1335 422 418 1336 419 420 1337 415 414 1338 421 417 1339 416 413 1340 418 419 1341 423 421 1342 414 415 1343 419 420 1344 424 422 1345 418 419 1346 419 420 1347 428 423 1348 425 424 1349 421 417 1350 426 425 1351 427 426 1352 422 418 1353 427 426 1354 428 423 1355 414 415 1356 426 425 1357 420 416 1358 428 423 1359 433 427 1360 434 428 1361 425 424 1362 430 429 1363 424 422 1364 423 421 1365 432 430 1366 426 425 1367 424 422 1368 429 431 1369 423 421 1370 425 424 1371 434 428 1372 431 432 1373 427 426 1374 432 430 1375 433 427 1376 430 429 1377 435 433 1378 429 431 1379 440 434 1380 447 435 1381 448 436 1382 432 430 1383 439 437 1384 433 427 1385 434 428 1386 439 437 1387 440 434 1388 430 429 1389 437 438 1390 436 439 1391 429 431 1392 438 440 1393 432 430 1394 435 433 1395 439 437 1396 438 440 1397 437 438 1398 435 433 1399 436 439 1400 227 229 1401 444 441 1402 230 230 1403 229 231 1404 444 441 1405 443 442 1406 228 232 1407 443 442 1408 442 443 1409 441 444 1410 448 436 1411 444 441 1412 443 442 1413 448 436 1414 447 435 1415 442 443 1416 447 435 1417 446 445 1418 434 428 1419 440 434 1420 445 446 1421 448 436 1422 445 446 1423 440 434 1424 447 435 1425 437 438 1426 446 445 1427 437 438 1428 431 432 1429 446 445 1430 445 446 1431 449 447 1432 434 428 1433 434 428 1434 450 448 1435 431 432 1436 446 445 1437 431 432 1438 450 448 1439 212 217 1440 302 300 1441 301 299 1442 212 449 1443 214 449 1444 211 449 1445 3 0 1446 1 7 1447 0 1 1448 3 0 1449 2 2 1450 4 3 1451 5 4 1452 8 15 1453 7 5 1454 3 0 1455 7 5 1456 6 6 1457 6 6 1458 11 11 1459 10 8 1460 1 7 1461 10 8 1462 9 9 1463 6 6 1464 12 14 1465 15 10 1466 7 5 1467 8 15 1468 14 12 1469 7 5 1470 13 13 1471 12 14 1472 8 15 1473 18 18 1474 19 16 1475 8 15 1476 5 4 1477 17 17 1478 5 4 1479 4 3 1480 16 19 1481 17 17 1482 20 35 1483 21 20 1484 18 18 1485 24 25 1486 25 21 1487 22 22 1488 26 91 1489 27 23 1490 17 17 1491 16 19 1492 22 22 1493 24 25 1494 28 30 1495 29 26 1496 21 20 1497 20 35 1498 30 27 1499 31 28 1500 33 31 1501 32 29 1502 21 20 1503 32 29 1504 24 25 1505 32 29 1506 34 32 1507 28 30 1508 33 31 1509 35 36 1510 34 32 1511 30 27 1512 20 35 1513 36 33 1514 20 35 1515 17 17 1516 23 24 1517 36 33 1518 23 24 1519 27 23 1520 37 34 1521 36 33 1522 34 32 1523 19 16 1524 25 21 1525 40 37 1526 14 12 1527 40 37 1528 42 38 1529 4 3 1530 43 39 1531 22 22 1532 2 2 1533 41 41 1534 43 39 1535 2 2 1536 0 1 1537 39 40 1538 12 14 1539 45 47 1540 46 42 1541 13 13 1542 48 50 1543 47 43 1544 47 43 1545 48 50 1546 50 44 1547 49 45 1548 53 67 1549 52 46 1550 47 43 1551 52 46 1552 45 47 1553 50 44 1554 48 50 1555 54 48 1556 48 50 1557 13 13 1558 42 38 1559 11 11 1560 15 10 1561 58 51 1562 11 11 1563 57 52 1564 56 53 1565 10 8 1566 56 53 1567 51 54 1568 58 51 1569 62 58 1570 61 55 1571 56 53 1572 60 57 1573 59 56 1574 57 52 1575 61 55 1576 60 57 1577 62 58 1578 58 51 1579 64 59 1580 15 10 1581 44 61 1582 64 59 1583 46 42 1584 63 64 1585 44 61 1586 65 60 1587 64 59 1588 68 62 1589 44 61 1590 66 65 1591 68 62 1592 55 49 1593 73 71 1594 71 68 1595 53 67 1596 49 45 1597 70 69 1598 49 45 1599 50 44 1600 71 68 1601 72 70 1602 70 69 1603 74 73 1604 70 69 1605 71 68 1606 75 72 1607 75 72 1608 73 71 1609 81 75 1610 76 74 1611 74 73 1612 78 77 1613 75 72 1614 79 76 1615 78 77 1616 81 75 1617 85 165 1618 83 79 1619 80 78 1620 78 77 1621 82 80 1622 78 77 1623 79 76 1624 83 79 1625 82 80 1626 83 79 1627 87 88 1628 22 22 1629 43 39 1630 93 90 1631 41 41 1632 39 40 1633 91 92 1634 43 39 1635 41 41 1636 92 93 1637 39 40 1638 90 95 1639 94 94 1640 59 56 1641 97 109 1642 96 97 1643 9 9 1644 51 54 1645 96 97 1646 93 90 1647 101 101 1648 98 98 1649 92 93 1650 91 92 1651 99 99 1652 93 90 1653 92 93 1654 100 100 1655 99 99 1656 94 94 1657 102 102 1658 100 100 1659 104 105 1660 105 104 1661 99 99 1662 103 103 1663 104 105 1664 102 102 1665 94 94 1666 90 95 1667 90 95 1668 95 96 1669 107 107 1670 95 96 1671 96 97 1672 108 108 1673 108 108 1674 96 97 1675 97 109 1676 26 91 1677 115 124 1678 117 111 1679 30 27 1680 38 116 1681 110 112 1682 33 31 1683 31 28 1684 110 112 1685 35 36 1686 33 31 1687 111 113 1688 30 27 1689 37 34 1690 113 115 1691 37 34 1692 35 36 1693 116 117 1694 34 32 1695 119 121 1696 114 118 1697 120 119 1698 119 121 1699 117 111 1700 34 32 1701 27 23 1702 117 111 1703 29 26 1704 28 30 1705 114 118 1706 112 114 1707 121 123 1708 120 119 1709 116 117 1710 35 36 1711 120 119 1712 114 118 1713 119 121 1714 120 119 1715 98 98 1716 124 127 1717 115 124 1718 98 98 1719 101 101 1720 125 125 1721 123 126 1722 127 128 1723 124 127 1724 127 128 1725 130 153 1726 129 129 1727 124 127 1728 129 129 1729 126 130 1730 115 124 1731 126 130 1732 122 120 1733 114 118 1734 121 123 1735 131 131 1736 118 122 1737 131 131 1738 128 132 1739 128 132 1740 131 131 1741 121 123 1742 29 26 1743 128 132 1744 134 133 1745 128 132 1746 112 114 1747 135 135 1748 111 113 1749 132 137 1750 135 135 1751 110 112 1752 137 138 1753 132 137 1754 137 138 1755 139 159 1756 138 139 1757 132 137 1758 138 139 1759 136 136 1760 149 140 1761 160 172 1762 156 141 1763 141 143 1764 140 142 1765 156 141 1766 136 136 1767 138 139 1768 140 142 1769 134 133 1770 136 136 1771 141 143 1772 138 139 1773 139 159 1774 149 140 1775 25 21 1776 133 134 1777 145 146 1778 137 138 1779 110 112 1780 147 148 1781 38 116 1782 146 152 1783 147 148 1784 122 120 1785 126 130 1786 151 150 1787 113 115 1788 116 117 1789 151 150 1790 38 116 1791 113 115 1792 150 151 1793 130 153 1794 153 173 1795 152 154 1796 152 154 1797 151 150 1798 126 130 1799 151 150 1800 152 154 1801 155 155 1802 146 152 1803 150 151 1804 155 155 1805 152 154 1806 153 173 1807 158 157 1808 154 156 1809 155 155 1810 158 157 1811 146 152 1812 154 156 1813 157 158 1814 161 145 1815 145 146 1816 133 134 1817 42 38 1818 164 163 1819 165 162 1820 164 163 1821 42 38 1822 144 147 1823 85 165 1824 298 296 1825 299 166 1826 73 71 1827 55 49 1828 168 168 1829 54 48 1830 165 162 1831 168 168 1832 168 168 1833 165 162 1834 166 170 1835 165 162 1836 164 163 1837 167 164 1838 166 170 1839 167 164 1840 163 161 1841 153 173 1842 172 177 1843 174 174 1844 157 158 1845 158 157 1846 174 174 1847 153 173 1848 130 153 1849 171 176 1850 172 177 1851 176 181 1852 178 178 1853 173 175 1854 174 174 1855 178 178 1856 172 177 1857 171 176 1858 175 180 1859 159 144 1860 156 141 1861 179 182 1862 160 172 1863 181 186 1864 179 182 1865 180 183 1866 179 182 1867 182 184 1868 181 186 1869 184 191 1870 182 184 1871 176 181 1872 186 190 1873 188 187 1874 178 178 1875 188 187 1876 187 188 1877 176 181 1878 175 180 1879 185 189 1880 184 191 1881 187 188 1882 188 187 1883 182 184 1884 188 187 1885 186 190 1886 187 188 1887 184 191 1888 189 192 1889 181 186 1890 148 149 1891 189 192 1892 157 158 1893 173 175 1894 190 193 1895 183 185 1896 186 190 1897 185 189 1898 183 185 1899 193 194 1900 192 195 1901 200 84 1902 89 83 1903 203 198 1904 142 85 1905 88 87 1906 89 83 1907 86 89 1908 87 88 1909 195 201 1910 195 201 1911 197 207 1912 199 203 1913 196 204 1914 194 202 1915 143 200 1916 194 202 1917 195 201 1918 142 85 1919 88 87 1920 202 206 1921 203 198 1922 88 87 1923 201 86 1924 205 205 1925 85 165 1926 206 167 1927 87 88 1928 239 208 1929 246 290 1930 244 209 1931 72 70 1932 170 212 1933 67 66 1934 72 70 1935 76 74 1936 209 211 1937 84 81 1938 210 214 1939 208 213 1940 208 213 1941 209 211 1942 76 74 1943 211 215 1944 215 450 1945 218 218 1946 214 216 1947 218 218 1948 217 219 1949 212 217 1950 213 196 1951 217 219 1952 218 218 1953 215 450 1954 219 221 1955 217 219 1956 218 218 1957 222 222 1958 217 219 1959 221 223 1960 220 224 1961 222 222 1962 219 221 1963 223 225 1964 221 223 1965 222 222 1966 226 226 1967 221 223 1968 225 227 1969 224 228 1970 226 226 1971 223 225 1972 227 229 1973 225 227 1974 226 226 1975 230 230 1976 224 228 1977 225 227 1978 229 231 1979 202 206 1980 231 234 1981 232 233 1982 231 234 1983 233 210 1984 234 235 1985 234 235 1986 237 244 1987 236 236 1988 232 233 1989 236 236 1990 204 199 1991 233 210 1992 231 234 1993 238 237 1994 202 206 1995 205 205 1996 238 237 1997 201 86 1998 199 203 1999 240 238 2000 244 209 2001 246 290 2002 249 239 2003 197 207 2004 242 242 2005 235 241 2006 206 167 2007 207 297 2008 242 242 2009 234 235 2010 243 245 2011 245 243 2012 233 210 2013 244 209 2014 243 245 2015 243 245 2016 241 247 2017 248 246 2018 244 209 2019 247 240 2020 241 247 2021 259 248 2022 261 256 2023 254 249 2024 260 251 2025 258 259 2026 257 252 2027 254 249 2028 255 253 2029 252 254 2030 260 251 2031 255 253 2032 254 249 2033 255 253 2034 257 252 2035 250 257 2036 256 250 2037 254 249 2038 253 255 2039 247 240 2040 249 239 2041 258 259 2042 247 240 2043 260 251 2044 261 256 2045 248 246 2046 241 247 2047 261 256 2048 251 258 2049 253 255 2050 265 260 2051 252 254 2052 264 263 2053 265 260 2054 252 254 2055 250 257 2056 262 262 2057 263 261 2058 265 260 2059 269 264 2060 264 263 2061 268 267 2062 269 264 2063 264 263 2064 262 262 2065 266 266 2066 267 265 2067 269 264 2068 273 268 2069 268 267 2070 272 271 2071 273 268 2072 268 267 2073 266 266 2074 270 270 2075 271 269 2076 273 268 2077 277 272 2078 272 271 2079 276 275 2080 277 272 2081 272 271 2082 270 270 2083 274 274 2084 275 273 2085 277 272 2086 281 276 2087 276 275 2088 280 281 2089 281 276 2090 283 278 2091 280 281 2092 245 243 2093 279 277 2094 281 276 2095 284 279 2096 280 281 2097 283 278 2098 284 279 2099 282 280 2100 284 279 2101 288 282 2102 283 278 2103 287 284 2104 288 282 2105 283 278 2106 248 246 2107 259 248 2108 286 283 2109 288 282 2110 291 285 2111 287 284 2112 290 287 2113 291 285 2114 287 284 2115 259 248 2116 256 250 2117 280 281 2118 276 275 2119 274 274 2120 237 244 2121 274 274 2122 278 288 2123 274 274 2124 270 270 2125 285 289 2126 166 170 2127 77 171 2128 81 75 2129 235 241 2130 258 259 2131 249 239 2132 163 161 2133 161 145 2134 293 291 2135 77 171 2136 163 161 2137 295 292 2138 162 160 2139 191 197 2140 296 294 2141 162 160 2142 294 295 2143 293 291 2144 85 165 2145 77 171 2146 292 293 2147 207 297 2148 206 167 2149 299 166 2150 191 197 2151 212 217 2152 301 299 2153 192 195 2154 297 301 2155 302 300 2156 297 301 2157 296 294 2158 301 299 2159 192 195 2160 313 313 2161 303 302 2162 292 293 2163 295 292 2164 307 303 2165 299 166 2166 298 296 2167 310 305 2168 294 295 2169 306 312 2170 305 307 2171 300 298 2172 299 166 2173 311 306 2174 293 291 2175 305 307 2176 307 303 2177 292 293 2178 304 304 2179 310 305 2180 309 309 2181 297 301 2182 303 302 2183 294 295 2184 296 294 2185 308 311 2186 296 294 2187 297 301 2188 309 309 2189 193 194 2190 316 315 2191 313 313 2192 193 194 2193 185 189 2194 315 314 2195 185 189 2196 175 180 2197 317 316 2198 175 180 2199 171 176 2200 318 317 2201 171 176 2202 130 153 2203 319 318 2204 127 128 2205 320 320 2206 321 319 2207 320 320 2208 127 128 2209 123 126 2210 320 320 2211 125 125 2212 322 321 2213 322 321 2214 125 125 2215 105 104 2216 325 323 2217 327 326 2218 324 324 2219 323 322 2220 322 321 2221 324 324 2222 327 326 2223 325 323 2224 330 327 2225 325 323 2226 105 104 2227 329 329 2228 104 105 2229 328 330 2230 329 329 2231 328 330 2232 104 105 2233 103 103 2234 328 330 2235 333 331 2236 334 333 2237 335 334 2238 330 327 2239 329 329 2240 330 327 2241 335 334 2242 336 335 2243 327 326 2244 331 328 2245 326 325 2246 319 318 2247 321 319 2248 337 336 2249 339 338 2250 338 337 2251 326 325 2252 334 333 2253 332 332 2254 342 341 2255 332 332 2256 106 106 2257 343 342 2258 318 317 2259 337 336 2260 344 343 2261 109 110 2262 347 451 2263 346 344 2264 106 106 2265 107 107 2266 345 345 2267 107 107 2268 108 108 2269 346 344 2270 337 336 2271 349 348 2272 350 347 2273 349 348 2274 337 336 2275 338 337 2276 338 337 2277 339 338 2278 354 350 2279 339 338 2280 341 340 2281 351 351 2282 314 310 2283 303 302 2284 353 352 2285 303 302 2286 313 313 2287 355 354 2288 355 354 2289 358 357 2290 357 355 2291 356 353 2292 353 352 2293 357 355 2294 358 357 2295 361 360 2296 360 358 2297 359 356 2298 357 355 2299 360 358 2300 361 360 2301 242 242 2302 207 297 2303 360 358 2304 207 297 2305 300 298 2306 290 287 2307 256 250 2308 251 258 2309 291 285 2310 290 287 2311 365 361 2312 289 286 2313 366 362 2314 368 363 2315 366 362 2316 365 361 2317 367 365 2318 263 261 2319 367 365 2320 365 361 2321 368 363 2322 367 365 2323 369 366 2324 363 364 2325 368 363 2326 370 367 2327 267 265 2328 369 366 2329 367 365 2330 370 367 2331 369 366 2332 371 369 2333 271 269 2334 371 369 2335 369 366 2336 372 370 2337 371 369 2338 373 371 2339 374 372 2340 373 371 2341 375 373 2342 372 370 2343 374 372 2344 378 375 2345 372 370 2346 377 376 2347 364 368 2348 379 377 2349 375 373 2350 282 280 2351 379 377 2352 286 283 2353 289 286 2354 378 375 2355 376 374 2356 364 368 2357 363 364 2358 364 368 2359 376 374 2360 236 236 2361 278 288 2362 381 379 2363 383 381 2364 210 214 2365 196 204 2366 285 289 2367 384 387 2368 381 379 2369 383 381 2370 386 382 2371 387 384 2372 209 211 2373 387 384 2374 388 385 2375 362 359 2376 300 298 2377 312 308 2378 314 310 2379 356 353 2380 359 356 2381 307 303 2382 412 388 2383 411 389 2384 306 312 2385 389 386 2386 417 390 2387 358 357 2388 391 392 2389 390 392 2390 358 357 2391 355 354 2392 392 393 2393 394 395 2394 392 393 2395 355 354 2396 395 396 2397 394 395 2398 313 313 2399 395 396 2400 316 315 2401 315 314 2402 396 397 2403 315 314 2404 348 346 2405 250 257 2406 398 401 2407 400 399 2408 250 257 2409 257 252 2410 399 400 2411 262 262 2412 400 399 2413 401 402 2414 266 266 2415 401 402 2416 402 403 2417 270 270 2418 402 403 2419 403 404 2420 384 387 2421 285 289 2422 403 404 2423 385 383 2424 384 387 2425 404 405 2426 386 382 2427 385 383 2428 405 406 2429 387 384 2430 386 382 2431 406 407 2432 170 212 2433 388 385 2434 408 409 2435 68 62 2436 66 65 2437 408 409 2438 409 410 2439 408 409 2440 388 385 2441 69 63 2442 68 62 2443 409 410 2444 393 452 2445 399 452 2446 257 452 2447 311 306 2448 310 305 2449 415 414 2450 305 307 2451 306 312 2452 413 391 2453 312 308 2454 416 413 2455 417 390 2456 310 305 2457 304 304 2458 411 389 2459 412 388 2460 418 419 2461 414 415 2462 411 389 2463 414 415 2464 420 416 2465 417 390 2466 416 413 2467 421 417 2468 413 391 2469 419 420 2470 418 419 2471 413 391 2472 417 390 2473 422 418 2474 415 414 2475 420 416 2476 421 417 2477 418 419 2478 424 422 2479 423 421 2480 419 420 2481 425 424 2482 424 422 2483 419 420 2484 422 418 2485 428 423 2486 421 417 2487 420 416 2488 426 425 2489 422 418 2490 421 417 2491 427 426 2492 414 415 2493 423 421 2494 426 425 2495 428 423 2496 427 426 2497 433 427 2498 425 424 2499 431 432 2500 430 429 2501 423 421 2502 429 431 2503 432 430 2504 424 422 2505 430 429 2506 429 431 2507 425 424 2508 428 423 2509 434 428 2510 427 426 2511 426 425 2512 432 430 2513 430 429 2514 436 439 2515 435 433 2516 440 434 2517 437 438 2518 447 435 2519 432 430 2520 438 440 2521 439 437 2522 434 428 2523 433 427 2524 439 437 2525 430 429 2526 431 432 2527 437 438 2528 429 431 2529 435 433 2530 438 440 2531 435 433 2532 440 434 2533 439 437 2534 437 438 2535 440 434 2536 435 433 2537 227 229 2538 441 444 2539 444 441 2540 229 231 2541 230 230 2542 444 441 2543 228 232 2544 229 231 2545 443 442 2546 441 444 2547 445 446 2548 448 436 2549 443 442 2550 444 441 2551 448 436 2552 442 443 2553 443 442 2554 447 435 2555 434 428 2556 449 447 2557 450 448 2558 212 217 2559 211 215 2560 302 300 2561 212 453 2562 213 453 2563 214 453 2564</p>
        </triangles>
      </mesh>
    </geometry>
  </library_geometries>
  <library_visual_scenes>
    <visual_scene id="Scene" name="Scene">
      <node id="_5Alf-col" name="05Alf-col" type="NODE">
        <matrix sid="transform">1 0 0 0 0 1 0 0 0 0 1 0 0 0 0 1</matrix>
        <instance_geometry url="#Cube_003-mesh" name="05Alf-col"/>
      </node>
    </visual_scene>
  </library_visual_scenes>
  <scene>
    <instance_visual_scene url="#Scene"/>
  </scene>
</COLLADA>