<?xml version="1.0" encoding="utf-8"?>
<COLLADA xmlns="http://www.collada.org/2005/11/COLLADASchema" version="1.4.1" xmlns:xsi="http://www.w3.org/2001/XMLSchema-instance">
  <asset>
    <contributor>
      <author>Blender User</author>
      <authoring_tool>Blender 2.83.5 commit date:2020-08-19, commit time:06:07, hash:c2b144df395f</authoring_tool>
    </contributor>
    <created>2023-06-08T18:11:03</created>
    <modified>2023-06-08T18:11:03</modified>
    <unit name="meter" meter="1"/>
    <up_axis>Z_UP</up_axis>
  </asset>
  <library_effects>
    <effect id="Tent-effect">
      <profile_COMMON>
        <technique sid="common">
          <lambert>
            <emission>
              <color sid="emission">0 0 0 1</color>
            </emission>
            <diffuse>
              <color sid="diffuse">0.4385441 0.1574299 0.02839521 1</color>
            </diffuse>
            <index_of_refraction>
              <float sid="ior">1.45</float>
            </index_of_refraction>
          </lambert>
        </technique>
      </profile_COMMON>
    </effect>
    <effect id="Campfire-effect">
      <profile_COMMON>
        <newparam sid="campfire_png-surface">
          <surface type="2D">
            <init_from>campfire_png</init_from>
          </surface>
        </newparam>
        <newparam sid="campfire_png-sampler">
          <sampler2D>
            <source>campfire_png-surface</source>
          </sampler2D>
        </newparam>
        <technique sid="common">
          <lambert>
            <emission>
              <color sid="emission">0 0 0 1</color>
            </emission>
            <diffuse>
              <texture texture="campfire_png-sampler" texcoord="UVMap"/>
            </diffuse>
            <index_of_refraction>
              <float sid="ior">1.45</float>
            </index_of_refraction>
          </lambert>
        </technique>
      </profile_COMMON>
    </effect>
    <effect id="Tent2-effect">
      <profile_COMMON>
        <technique sid="common">
          <lambert>
            <emission>
              <color sid="emission">0 0 0 1</color>
            </emission>
            <diffuse>
              <color sid="diffuse">0 0 0 1</color>
            </diffuse>
            <index_of_refraction>
              <float sid="ior">1.45</float>
            </index_of_refraction>
          </lambert>
        </technique>
      </profile_COMMON>
    </effect>
  </library_effects>
  <library_images>
    <image id="campfire_png" name="campfire_png">
      <init_from>campfire.png</init_from>
    </image>
  </library_images>
  <library_materials>
    <material id="Tent-material" name="Tent">
      <instance_effect url="#Tent-effect"/>
    </material>
    <material id="Campfire-material" name="Campfire">
      <instance_effect url="#Campfire-effect"/>
    </material>
    <material id="Tent2-material" name="Tent2">
      <instance_effect url="#Tent2-effect"/>
    </material>
  </library_materials>
  <library_geometries>
    <geometry id="Cube_016-mesh" name="Cube.016">
      <mesh>
        <source id="Cube_016-mesh-positions">
          <float_array id="Cube_016-mesh-positions-array" count="24">-0.7013633 -0.7013633 -0.8009088 -0.7013633 0 0.6018179 -0.7013633 0.7013634 -0.8009088 0.7013633 -0.7013633 -0.8009088 0.7013633 0 0.6018179 0.7013633 0.7013634 -0.8009088 -0.7013633 -0.1356298 -0.8009088 -0.7013633 0.1270761 -0.7347931</float_array>
          <technique_common>
            <accessor source="#Cube_016-mesh-positions-array" count="8" stride="3">
              <param name="X" type="float"/>
              <param name="Y" type="float"/>
              <param name="Z" type="float"/>
            </accessor>
          </technique_common>
        </source>
        <source id="Cube_016-mesh-normals">
          <float_array id="Cube_016-mesh-normals-array" count="24">-1 0 0 0 0.8944272 0.4472136 1 0 0 0 -0.8944272 0.4472136 0 0 -1 0 0.8944272 0.4472136 0 -0.8944272 0.4472136 0 0 -1</float_array>
          <technique_common>
            <accessor source="#Cube_016-mesh-normals-array" count="8" stride="3">
              <param name="X" type="float"/>
              <param name="Y" type="float"/>
              <param name="Z" type="float"/>
            </accessor>
          </technique_common>
        </source>
        <source id="Cube_016-mesh-map-0">
          <float_array id="Cube_016-mesh-map-0-array" count="72">0.375 0 0.625 0.25 0.375 0.1008274 0.625 0.25 0.375 0.5 0.375 0.25 0.375 0.5 0.625 0.75 0.375 0.75 0.625 0.75 0.375 1 0.375 0.75 0.375 0.75 0.125 0.75 0.125 0.6491726 0.375 0.1008274 0.3867834 0.1535397 0.375 0.25 0.375 0.25 0.3867834 0.1535397 0.625 0.25 0.625 0.25 0.625 0.5 0.375 0.5 0.625 0.75 0.625 1 0.375 1 0.125 0.6491726 0.125 0.5 0.375 0.5 0.375 0.5 0.375 0.75 0.125 0.6491726 0.375 0.1008274 0.625 0.25 0.3867834 0.1535397</float_array>
          <technique_common>
            <accessor source="#Cube_016-mesh-map-0-array" count="36" stride="2">
              <param name="S" type="float"/>
              <param name="T" type="float"/>
            </accessor>
          </technique_common>
        </source>
        <vertices id="Cube_016-mesh-vertices">
          <input semantic="POSITION" source="#Cube_016-mesh-positions"/>
        </vertices>
        <triangles material="Tent-material" count="10">
          <input semantic="VERTEX" source="#Cube_016-mesh-vertices" offset="0"/>
          <input semantic="NORMAL" source="#Cube_016-mesh-normals" offset="1"/>
          <input semantic="TEXCOORD" source="#Cube_016-mesh-map-0" offset="2" set="0"/>
          <p>0 0 0 1 0 1 6 0 2 1 1 3 5 1 4 2 1 5 5 2 6 4 2 7 3 2 8 4 3 9 0 3 10 3 3 11 3 4 12 0 4 13 6 4 14 2 0 18 7 0 19 1 0 20 1 5 21 4 5 22 5 5 23 4 6 24 1 6 25 0 6 26 6 4 27 2 4 28 5 4 29 5 7 30 3 7 31 6 7 32</p>
        </triangles>
        <triangles material="Tent2-material" count="2">
          <input semantic="VERTEX" source="#Cube_016-mesh-vertices" offset="0"/>
          <input semantic="NORMAL" source="#Cube_016-mesh-normals" offset="1"/>
          <input semantic="TEXCOORD" source="#Cube_016-mesh-map-0" offset="2" set="0"/>
          <p>6 0 15 7 0 16 2 0 17 6 0 33 1 0 34 7 0 35</p>
        </triangles>
      </mesh>
    </geometry>
    <geometry id="Cube_015-mesh" name="Cube.015">
      <mesh>
        <source id="Cube_015-mesh-positions">
          <float_array id="Cube_015-mesh-positions-array" count="12">-3.355742 -0.7246022 -0.5296182 -1.438767 -1.29464 -0.5457646 -2.785639 1.189702 -0.4275364 -0.8686629 0.6196643 -0.4436829</float_array>
          <technique_common>
            <accessor source="#Cube_015-mesh-positions-array" count="4" stride="3">
              <param name="X" type="float"/>
              <param name="Y" type="float"/>
              <param name="Z" type="float"/>
            </accessor>
          </technique_common>
        </source>
        <source id="Cube_015-mesh-normals">
          <float_array id="Cube_015-mesh-normals-array" count="6">-0.006820321 -0.05122333 0.9986639 -0.006820321 -0.05122333 0.998664</float_array>
          <technique_common>
            <accessor source="#Cube_015-mesh-normals-array" count="2" stride="3">
              <param name="X" type="float"/>
              <param name="Y" type="float"/>
              <param name="Z" type="float"/>
            </accessor>
          </technique_common>
        </source>
        <source id="Cube_015-mesh-map-0">
          <float_array id="Cube_015-mesh-map-0-array" count="12">1 0 0 1 0 0 1 0 1 1 0 1</float_array>
          <technique_common>
            <accessor source="#Cube_015-mesh-map-0-array" count="6" stride="2">
              <param name="S" type="float"/>
              <param name="T" type="float"/>
            </accessor>
          </technique_common>
        </source>
        <vertices id="Cube_015-mesh-vertices">
          <input semantic="POSITION" source="#Cube_015-mesh-positions"/>
        </vertices>
        <triangles material="Campfire-material" count="2">
          <input semantic="VERTEX" source="#Cube_015-mesh-vertices" offset="0"/>
          <input semantic="NORMAL" source="#Cube_015-mesh-normals" offset="1"/>
          <input semantic="TEXCOORD" source="#Cube_015-mesh-map-0" offset="2" set="0"/>
          <p>1 0 0 2 0 1 0 0 2 1 1 3 3 1 4 2 1 5</p>
        </triangles>
      </mesh>
    </geometry>
  </library_geometries>
  <library_visual_scenes>
    <visual_scene id="Scene" name="Scene">
      <node id="TentCamp-col" name="TentCamp-col" type="NODE">
        <matrix sid="transform">0.9596292 -0.2812681 0 4.388468 0.2812681 0.9596292 0 -3.906912 0 0 1 1.10734 0 0 0 1</matrix>
        <instance_geometry url="#Cube_016-mesh" name="TentCamp-col">
          <bind_material>
            <technique_common>
              <instance_material symbol="Tent-material" target="#Tent-material">
                <bind_vertex_input semantic="UVMap" input_semantic="TEXCOORD" input_set="0"/>
              </instance_material>
              <instance_material symbol="Campfire-material" target="#Campfire-material">
                <bind_vertex_input semantic="UVMap" input_semantic="TEXCOORD" input_set="0"/>
              </instance_material>
              <instance_material symbol="Tent2-material" target="#Tent2-material">
                <bind_vertex_input semantic="UVMap" input_semantic="TEXCOORD" input_set="0"/>
              </instance_material>
            </technique_common>
          </bind_material>
        </instance_geometry>
        <node id="Cube_011" name="Cube.011" type="NODE">
          <matrix sid="transform">1 0 0 2.38419e-7 0 1 0 4.76837e-7 0 0 1 0 0 0 0 1</matrix>
          <instance_geometry url="#Cube_015-mesh" name="Cube.011">
            <bind_material>
              <technique_common>
                <instance_material symbol="Tent-material" target="#Tent-material">
                  <bind_vertex_input semantic="UVMap" input_semantic="TEXCOORD" input_set="0"/>
                </instance_material>
                <instance_material symbol="Campfire-material" target="#Campfire-material">
                  <bind_vertex_input semantic="UVMap" input_semantic="TEXCOORD" input_set="0"/>
                </instance_material>
                <instance_material symbol="Tent2-material" target="#Tent2-material">
                  <bind_vertex_input semantic="UVMap" input_semantic="TEXCOORD" input_set="0"/>
                </instance_material>
              </technique_common>
            </bind_material>
          </instance_geometry>
        </node>
      </node>
    </visual_scene>
  </library_visual_scenes>
  <scene>
    <instance_visual_scene url="#Scene"/>
  </scene>
</COLLADA>